info face="Segoe Script" size=136 bold=0 italic=0 charset="" unicode=0 stretchH=100 smooth=1 aa=1 padding=0,0,0,0 spacing=1,1
common lineHeight=223 base=149 scaleW=1024 scaleH=1024 pages=1 packed=0
page id=0 file="LoaderFont_136.png"
chars count=95
char id=32   x=0     y=0     width=0     height=0     xoffset=0     yoffset=149    xadvance=60     page=0  chnl=0 
char id=124   x=0     y=0     width=19     height=212     xoffset=13     yoffset=8    xadvance=50     page=0  chnl=0 
char id=93   x=19     y=0     width=61     height=148     xoffset=-4     yoffset=38    xadvance=63     page=0  chnl=0 
char id=91   x=80     y=0     width=51     height=148     xoffset=9     yoffset=41    xadvance=61     page=0  chnl=0 
char id=41   x=131     y=0     width=48     height=147     xoffset=-1     yoffset=40    xadvance=55     page=0  chnl=0 
char id=40   x=179     y=0     width=56     height=146     xoffset=2     yoffset=41    xadvance=61     page=0  chnl=0 
char id=125   x=235     y=0     width=60     height=145     xoffset=-3     yoffset=40    xadvance=61     page=0  chnl=0 
char id=102   x=295     y=0     width=92     height=145     xoffset=-7     yoffset=43    xadvance=59     page=0  chnl=0 
char id=123   x=387     y=0     width=64     height=143     xoffset=-2     yoffset=41    xadvance=64     page=0  chnl=0 
char id=106   x=451     y=0     width=73     height=141     xoffset=-16     yoffset=44    xadvance=47     page=0  chnl=0 
char id=81   x=524     y=0     width=108     height=131     xoffset=4     yoffset=45    xadvance=119     page=0  chnl=0 
char id=92   x=632     y=0     width=79     height=129     xoffset=-2     yoffset=38    xadvance=81     page=0  chnl=0 
char id=36   x=711     y=0     width=75     height=128     xoffset=-1     yoffset=40    xadvance=81     page=0  chnl=0 
char id=89   x=786     y=0     width=102     height=127     xoffset=1     yoffset=30    xadvance=99     page=0  chnl=0 
char id=72   x=888     y=0     width=108     height=125     xoffset=7     yoffset=38    xadvance=118     page=0  chnl=0 
char id=104   x=0     y=212     width=122     height=123     xoffset=9     yoffset=34    xadvance=94     page=0  chnl=0 
char id=71   x=122     y=212     width=108     height=122     xoffset=4     yoffset=43    xadvance=115     page=0  chnl=0 
char id=47   x=230     y=212     width=86     height=120     xoffset=-4     yoffset=41    xadvance=84     page=0  chnl=0 
char id=98   x=316     y=212     width=71     height=120     xoffset=4     yoffset=48    xadvance=79     page=0  chnl=0 
char id=112   x=387     y=212     width=85     height=118     xoffset=3     yoffset=74    xadvance=91     page=0  chnl=0 
char id=67   x=472     y=212     width=89     height=116     xoffset=6     yoffset=43    xadvance=106     page=0  chnl=0 
char id=80   x=561     y=212     width=95     height=115     xoffset=11     yoffset=47    xadvance=112     page=0  chnl=0 
char id=88   x=656     y=212     width=100     height=114     xoffset=-3     yoffset=42    xadvance=106     page=0  chnl=0 
char id=75   x=756     y=212     width=101     height=114     xoffset=13     yoffset=45    xadvance=112     page=0  chnl=0 
char id=38   x=857     y=212     width=118     height=113     xoffset=9     yoffset=45    xadvance=132     page=0  chnl=0 
char id=63   x=0     y=335     width=67     height=113     xoffset=8     yoffset=43    xadvance=76     page=0  chnl=0 
char id=113   x=67     y=335     width=68     height=113     xoffset=4     yoffset=70    xadvance=82     page=0  chnl=0 
char id=108   x=135     y=335     width=78     height=113     xoffset=11     yoffset=42    xadvance=60     page=0  chnl=0 
char id=107   x=213     y=335     width=84     height=113     xoffset=8     yoffset=44    xadvance=94     page=0  chnl=0 
char id=100   x=297     y=335     width=119     height=113     xoffset=1     yoffset=40    xadvance=102     page=0  chnl=0 
char id=87   x=416     y=335     width=145     height=113     xoffset=4     yoffset=45    xadvance=144     page=0  chnl=0 
char id=66   x=561     y=335     width=93     height=113     xoffset=11     yoffset=47    xadvance=109     page=0  chnl=0 
char id=103   x=654     y=335     width=90     height=112     xoffset=-8     yoffset=73    xadvance=78     page=0  chnl=0 
char id=78   x=744     y=335     width=113     height=112     xoffset=8     yoffset=45    xadvance=120     page=0  chnl=0 
char id=74   x=857     y=335     width=80     height=112     xoffset=0     yoffset=43    xadvance=89     page=0  chnl=0 
char id=70   x=937     y=335     width=81     height=112     xoffset=9     yoffset=46    xadvance=85     page=0  chnl=0 
char id=85   x=0     y=448     width=95     height=111     xoffset=9     yoffset=43    xadvance=111     page=0  chnl=0 
char id=82   x=95     y=448     width=102     height=111     xoffset=10     yoffset=48    xadvance=125     page=0  chnl=0 
char id=79   x=197     y=448     width=112     height=111     xoffset=4     yoffset=42    xadvance=115     page=0  chnl=0 
char id=77   x=309     y=448     width=123     height=111     xoffset=5     yoffset=45    xadvance=143     page=0  chnl=0 
char id=69   x=432     y=448     width=103     height=111     xoffset=8     yoffset=45    xadvance=108     page=0  chnl=0 
char id=127   x=535     y=448     width=70     height=110     xoffset=0     yoffset=43    xadvance=74     page=0  chnl=0 
char id=64   x=605     y=448     width=106     height=110     xoffset=4     yoffset=45    xadvance=118     page=0  chnl=0 
char id=83   x=711     y=448     width=84     height=110     xoffset=-1     yoffset=49    xadvance=89     page=0  chnl=0 
char id=52   x=795     y=448     width=101     height=108     xoffset=-2     yoffset=50    xadvance=105     page=0  chnl=0 
char id=121   x=896     y=448     width=76     height=108     xoffset=5     yoffset=80    xadvance=89     page=0  chnl=0 
char id=105   x=0     y=559     width=69     height=108     xoffset=8     yoffset=46    xadvance=58     page=0  chnl=0 
char id=65   x=69     y=559     width=118     height=108     xoffset=-2     yoffset=50    xadvance=120     page=0  chnl=0 
char id=86   x=187     y=559     width=106     height=107     xoffset=-1     yoffset=44    xadvance=105     page=0  chnl=0 
char id=84   x=293     y=559     width=121     height=106     xoffset=-2     yoffset=49    xadvance=101     page=0  chnl=0 
char id=33   x=414     y=559     width=34     height=105     xoffset=6     yoffset=47    xadvance=50     page=0  chnl=0 
char id=50   x=448     y=559     width=101     height=105     xoffset=-1     yoffset=55    xadvance=105     page=0  chnl=0 
char id=76   x=549     y=559     width=90     height=104     xoffset=9     yoffset=47    xadvance=98     page=0  chnl=0 
char id=73   x=639     y=559     width=29     height=104     xoffset=6     yoffset=50    xadvance=48     page=0  chnl=0 
char id=49   x=668     y=559     width=91     height=102     xoffset=5     yoffset=53    xadvance=105     page=0  chnl=0 
char id=116   x=759     y=559     width=84     height=102     xoffset=-1     yoffset=55    xadvance=68     page=0  chnl=0 
char id=35   x=843     y=559     width=109     height=100     xoffset=-1     yoffset=47    xadvance=114     page=0  chnl=0 
char id=48   x=0     y=667     width=103     height=100     xoffset=-2     yoffset=55    xadvance=105     page=0  chnl=0 
char id=37   x=103     y=667     width=90     height=99     xoffset=7     yoffset=52    xadvance=105     page=0  chnl=0 
char id=90   x=193     y=667     width=130     height=99     xoffset=5     yoffset=52    xadvance=121     page=0  chnl=0 
char id=68   x=323     y=667     width=106     height=99     xoffset=12     yoffset=52    xadvance=124     page=0  chnl=0 
char id=56   x=429     y=667     width=71     height=97     xoffset=16     yoffset=58    xadvance=105     page=0  chnl=0 
char id=55   x=500     y=667     width=87     height=97     xoffset=14     yoffset=58    xadvance=105     page=0  chnl=0 
char id=53   x=587     y=667     width=110     height=97     xoffset=6     yoffset=58    xadvance=105     page=0  chnl=0 
char id=57   x=697     y=667     width=76     height=96     xoffset=15     yoffset=57    xadvance=105     page=0  chnl=0 
char id=54   x=773     y=667     width=88     height=96     xoffset=8     yoffset=57    xadvance=105     page=0  chnl=0 
char id=51   x=861     y=667     width=87     height=96     xoffset=6     yoffset=57    xadvance=105     page=0  chnl=0 
char id=59   x=948     y=667     width=39     height=92     xoffset=-3     yoffset=78    xadvance=51     page=0  chnl=0 
char id=115   x=0     y=767     width=42     height=88     xoffset=12     yoffset=77    xadvance=59     page=0  chnl=0 
char id=62   x=42     y=767     width=67     height=85     xoffset=8     yoffset=63    xadvance=84     page=0  chnl=0 
char id=60   x=109     y=767     width=66     height=83     xoffset=4     yoffset=59    xadvance=79     page=0  chnl=0 
char id=101   x=175     y=767     width=76     height=79     xoffset=9     yoffset=70    xadvance=77     page=0  chnl=0 
char id=118   x=251     y=767     width=80     height=78     xoffset=10     yoffset=86    xadvance=87     page=0  chnl=0 
char id=99   x=331     y=767     width=75     height=78     xoffset=6     yoffset=75    xadvance=81     page=0  chnl=0 
char id=122   x=406     y=767     width=91     height=76     xoffset=7     yoffset=81    xadvance=100     page=0  chnl=0 
char id=120   x=497     y=767     width=98     height=76     xoffset=7     yoffset=82    xadvance=103     page=0  chnl=0 
char id=119   x=595     y=767     width=106     height=76     xoffset=8     yoffset=85    xadvance=118     page=0  chnl=0 
char id=114   x=701     y=767     width=67     height=75     xoffset=12     yoffset=78    xadvance=80     page=0  chnl=0 
char id=97   x=768     y=767     width=127     height=75     xoffset=2     yoffset=78    xadvance=89     page=0  chnl=0 
char id=58   x=895     y=767     width=25     height=74     xoffset=9     yoffset=78    xadvance=47     page=0  chnl=0 
char id=43   x=920     y=767     width=73     height=73     xoffset=3     yoffset=75    xadvance=84     page=0  chnl=0 
char id=117   x=0     y=855     width=94     height=72     xoffset=6     yoffset=79    xadvance=101     page=0  chnl=0 
char id=111   x=94     y=855     width=70     height=72     xoffset=2     yoffset=79    xadvance=77     page=0  chnl=0 
char id=110   x=164     y=855     width=99     height=71     xoffset=9     yoffset=80    xadvance=105     page=0  chnl=0 
char id=109   x=263     y=855     width=143     height=69     xoffset=11     yoffset=82    xadvance=157     page=0  chnl=0 
char id=42   x=406     y=855     width=72     height=64     xoffset=-1     yoffset=46    xadvance=76     page=0  chnl=0 
char id=94   x=478     y=855     width=76     height=62     xoffset=2     yoffset=55    xadvance=84     page=0  chnl=0 
char id=61   x=554     y=855     width=72     height=57     xoffset=6     yoffset=76    xadvance=91     page=0  chnl=0 
char id=39   x=626     y=855     width=25     height=55     xoffset=6     yoffset=47    xadvance=37     page=0  chnl=0 
char id=34   x=651     y=855     width=50     height=55     xoffset=6     yoffset=46    xadvance=61     page=0  chnl=0 
char id=44   x=701     y=855     width=39     height=46     xoffset=6     yoffset=124    xadvance=52     page=0  chnl=0 
char id=126   x=740     y=855     width=102     height=42     xoffset=4     yoffset=79    xadvance=112     page=0  chnl=0 
char id=96   x=842     y=855     width=43     height=36     xoffset=1     yoffset=48    xadvance=49     page=0  chnl=0 
char id=46   x=885     y=855     width=24     height=25     xoffset=6     yoffset=127    xadvance=40     page=0  chnl=0 
char id=45   x=909     y=855     width=67     height=20     xoffset=20     yoffset=100    xadvance=93     page=0  chnl=0 
char id=95   x=0     y=927     width=80     height=18     xoffset=-7     yoffset=149    xadvance=63     page=0  chnl=0 
