<?xml version="1.0" encoding="UTF-8"?>
<session version="1.0">
<refactoring accessors="true" comment="Delete element from project &apos;Welcome&apos;&#x0D;&#x0A;- Original project: &apos;Welcome&apos;&#x0D;&#x0A;- Original element: &apos;A&apos;" description="Delete element" element1="com/pack/er/A" elements="0" flags="589830" id="org.eclipse.jdt.ui.delete" resources="1" stamp="1347298669640" subPackages="false" version="1.0"/>
</session>