what,kind,bundleId,bundleVersion,description,time
activated,workbench,org.eclipse.ui.workbench,3.7.1.v20120104-1859,"",1340485616490
deactivated,workbench,org.eclipse.ui.workbench,3.7.1.v20120104-1859,"",1340485617096
activated,workbench,org.eclipse.ui.workbench,3.7.1.v20120104-1859,"",1340486279937
deactivated,workbench,org.eclipse.ui.workbench,3.7.1.v20120104-1859,"",1340486280400
activated,workbench,org.eclipse.ui.workbench,3.7.1.v20120104-1859,"",1340489819065
activated,editor,org.eclipse.jdt.ui,3.7.2.v20120109-1427,"org.eclipse.jdt.ui.CompilationUnitEditor",1340489821627
deactivated,workbench,org.eclipse.ui.workbench,3.7.1.v20120104-1859,"",1340489829834
activated,workbench,org.eclipse.ui.workbench,3.7.1.v20120104-1859,"",1340489830390
deactivated,workbench,org.eclipse.ui.workbench,3.7.1.v20120104-1859,"",1340489830721
activated,workbench,org.eclipse.ui.workbench,3.7.1.v20120104-1859,"",1340489831957
activated,view,org.eclipse.ui.console,3.5.100.v20111007_r372,"org.eclipse.ui.console.ConsoleView",1340489836318
activated,view,com.android.ide.eclipse.ddms,18.0.0.v201203301601-306762,"com.android.ide.eclipse.ddms.views.LogCatView",1340489840660
started,bundle,org.eclipse.cdt.dsf.ui,2.2.1.201202111925,"org.eclipse.cdt.dsf.ui",1340489841489
opened,view,org.eclipse.debug.ui,3.7.102.v20111129-1423_r372,"org.eclipse.debug.ui.DebugView",1340489841602
activated,view,org.eclipse.debug.ui,3.7.102.v20111129-1423_r372,"org.eclipse.debug.ui.DebugView",1340489841614
opened,view,com.android.ide.eclipse.ddms,18.0.0.v201203301601-306762,"com.android.ide.eclipse.ddms.views.DeviceView",1340489842340
activated,view,com.android.ide.eclipse.ddms,18.0.0.v201203301601-306762,"com.android.ide.eclipse.ddms.views.DeviceView",1340489842348
activated,view,com.android.ide.eclipse.ddms,18.0.0.v201203301601-306762,"com.android.ide.eclipse.ddms.views.LogCatView",1340489842750
activated,view,org.eclipse.ui.console,3.5.100.v20111007_r372,"org.eclipse.ui.console.ConsoleView",1340489843693
activated,view,com.android.ide.eclipse.ddms,18.0.0.v201203301601-306762,"com.android.ide.eclipse.ddms.views.LogCatView",1340489844065
activated,editor,org.eclipse.jdt.ui,3.7.2.v20120109-1427,"org.eclipse.jdt.ui.CompilationUnitEditor",1340489924488
activated,view,com.android.ide.eclipse.ddms,18.0.0.v201203301601-306762,"com.android.ide.eclipse.ddms.views.LogCatView",1340489936700
activated,editor,org.eclipse.jdt.ui,3.7.2.v20120109-1427,"org.eclipse.jdt.ui.CompilationUnitEditor",1340489942466
deactivated,workbench,org.eclipse.ui.workbench,3.7.1.v20120104-1859,"",1340489950815
activated,workbench,org.eclipse.ui.workbench,3.7.1.v20120104-1859,"",1340489959593
deactivated,workbench,org.eclipse.ui.workbench,3.7.1.v20120104-1859,"",1340489961167
activated,workbench,org.eclipse.ui.workbench,3.7.1.v20120104-1859,"",1340489967579
activated,view,org.eclipse.mylyn.tasks.ui,3.6.5.v20120215-0100,"org.eclipse.mylyn.tasks.ui.views.tasks",1340489967731
activated,editor,org.eclipse.jdt.ui,3.7.2.v20120109-1427,"org.eclipse.jdt.ui.CompilationUnitEditor",1340489967750
activated,view,org.eclipse.ui.views,3.6.0.v20110928-1505,"org.eclipse.ui.views.ContentOutline",1340489968834
activated,editor,org.eclipse.jdt.ui,3.7.2.v20120109-1427,"org.eclipse.jdt.ui.CompilationUnitEditor",1340489968864
deactivated,workbench,org.eclipse.ui.workbench,3.7.1.v20120104-1859,"",1340489988111
activated,view,com.android.ide.eclipse.ddms,18.0.0.v201203301601-306762,"com.android.ide.eclipse.ddms.views.LogCatView",1340490006064
activated,workbench,org.eclipse.ui.workbench,3.7.1.v20120104-1859,"",1340490006070
activated,editor,org.eclipse.jdt.ui,3.7.2.v20120109-1427,"org.eclipse.jdt.ui.CompilationUnitEditor",1340490006088
activated,view,com.android.ide.eclipse.ddms,18.0.0.v201203301601-306762,"com.android.ide.eclipse.ddms.views.LogCatView",1340490006545
deactivated,workbench,org.eclipse.ui.workbench,3.7.1.v20120104-1859,"",1340490040166
activated,workbench,org.eclipse.ui.workbench,3.7.1.v20120104-1859,"",1340490056412
activated,editor,org.eclipse.jdt.ui,3.7.2.v20120109-1427,"org.eclipse.jdt.ui.CompilationUnitEditor",1340490056442
deactivated,workbench,org.eclipse.ui.workbench,3.7.1.v20120104-1859,"",1340490071302
activated,workbench,org.eclipse.ui.workbench,3.7.1.v20120104-1859,"",1340490097886
deactivated,workbench,org.eclipse.ui.workbench,3.7.1.v20120104-1859,"",1340490110426
activated,workbench,org.eclipse.ui.workbench,3.7.1.v20120104-1859,"",1340490113069
executed,command,org.eclipse.ui,3.7.0.v20110928-1505,"org.eclipse.ui.file.saveAll",1340490113721
deactivated,workbench,org.eclipse.ui.workbench,3.7.1.v20120104-1859,"",1340490114310
activated,workbench,org.eclipse.ui.workbench,3.7.1.v20120104-1859,"",1340490144269
activated,view,org.eclipse.ui.console,3.5.100.v20111007_r372,"org.eclipse.ui.console.ConsoleView",1340490149774
deactivated,workbench,org.eclipse.ui.workbench,3.7.1.v20120104-1859,"",1340490150348
activated,workbench,org.eclipse.ui.workbench,3.7.1.v20120104-1859,"",1340490151824
activated,view,com.android.ide.eclipse.ddms,18.0.0.v201203301601-306762,"com.android.ide.eclipse.ddms.views.LogCatView",1340490158815
activated,view,org.eclipse.ui.console,3.5.100.v20111007_r372,"org.eclipse.ui.console.ConsoleView",1340490159593
activated,view,com.android.ide.eclipse.ddms,18.0.0.v201203301601-306762,"com.android.ide.eclipse.ddms.views.LogCatView",1340490162630
activated,view,org.eclipse.debug.ui,3.7.102.v20111129-1423_r372,"org.eclipse.debug.ui.DebugView",1340490166149
activated,view,com.android.ide.eclipse.ddms,18.0.0.v201203301601-306762,"com.android.ide.eclipse.ddms.views.LogCatView",1340490166904
deactivated,workbench,org.eclipse.ui.workbench,3.7.1.v20120104-1859,"",1340490215634
activated,workbench,org.eclipse.ui.workbench,3.7.1.v20120104-1859,"",1340490378278
deactivated,workbench,org.eclipse.ui.workbench,3.7.1.v20120104-1859,"",1340490387013
activated,workbench,org.eclipse.ui.workbench,3.7.1.v20120104-1859,"",1340490412742
activated,editor,org.eclipse.jdt.ui,3.7.2.v20120109-1427,"org.eclipse.jdt.ui.CompilationUnitEditor",1340490412768
activated,view,org.eclipse.ui.console,3.5.100.v20111007_r372,"org.eclipse.ui.console.ConsoleView",1340490415519
deactivated,workbench,org.eclipse.ui.workbench,3.7.1.v20120104-1859,"",1340490416608
activated,workbench,org.eclipse.ui.workbench,3.7.1.v20120104-1859,"",1340490417745
deactivated,workbench,org.eclipse.ui.workbench,3.7.1.v20120104-1859,"",1340490419006
activated,view,com.android.ide.eclipse.ddms,18.0.0.v201203301601-306762,"com.android.ide.eclipse.ddms.views.LogCatView",1340490427147
activated,workbench,org.eclipse.ui.workbench,3.7.1.v20120104-1859,"",1340490627829
deactivated,workbench,org.eclipse.ui.workbench,3.7.1.v20120104-1859,"",1340490628085
activated,workbench,org.eclipse.ui.workbench,3.7.1.v20120104-1859,"",1340490636268
deactivated,workbench,org.eclipse.ui.workbench,3.7.1.v20120104-1859,"",1340490641551
activated,workbench,org.eclipse.ui.workbench,3.7.1.v20120104-1859,"",1340490642660
activated,view,org.eclipse.ui.console,3.5.100.v20111007_r372,"org.eclipse.ui.console.ConsoleView",1340490644613
activated,view,com.android.ide.eclipse.ddms,18.0.0.v201203301601-306762,"com.android.ide.eclipse.ddms.views.LogCatView",1340490647255
activated,view,org.eclipse.jdt.ui,3.7.2.v20120109-1427,"org.eclipse.jdt.ui.PackageExplorer",1340490713220
opened,editor,com.android.ide.eclipse.adt,18.0.0.v201203301601-306762,"com.android.ide.eclipse.editors.manifest.ManifestEditor",1340490714757
activated,editor,com.android.ide.eclipse.adt,18.0.0.v201203301601-306762,"com.android.ide.eclipse.editors.manifest.ManifestEditor",1340490714808
deactivated,workbench,org.eclipse.ui.workbench,3.7.1.v20120104-1859,"",1340490722480
activated,workbench,org.eclipse.ui.workbench,3.7.1.v20120104-1859,"",1340490725987
error,log,,,"Can't find file D:\\android\\rep\\_cocos_root\\boxmaster\\android\\AndroidManifest.xml in workspace",1340490726236
deactivated,workbench,org.eclipse.ui.workbench,3.7.1.v20120104-1859,"",1340490728397
activated,workbench,org.eclipse.ui.workbench,3.7.1.v20120104-1859,"",1340490729185
error,log,,,"Can't find file D:\\android\\rep\\_cocos_root\\boxmaster\\android\\AndroidManifest.xml in workspace",1340490729205
deactivated,workbench,org.eclipse.ui.workbench,3.7.1.v20120104-1859,"",1340490729749
activated,workbench,org.eclipse.ui.workbench,3.7.1.v20120104-1859,"",1340490730490
error,log,,,"Can't find file D:\\android\\rep\\_cocos_root\\boxmaster\\android\\AndroidManifest.xml in workspace",1340490730504
deactivated,workbench,org.eclipse.ui.workbench,3.7.1.v20120104-1859,"",1340490795097
activated,workbench,org.eclipse.ui.workbench,3.7.1.v20120104-1859,"",1340491139452
deactivated,workbench,org.eclipse.ui.workbench,3.7.1.v20120104-1859,"",1340491140544
activated,workbench,org.eclipse.ui.workbench,3.7.1.v20120104-1859,"",1340491141412
error,log,,,"Can't find file D:\\android\\rep\\_cocos_root\\boxmaster\\android\\AndroidManifest.xml in workspace",1340491141460
activated,editor,org.eclipse.jdt.ui,3.7.2.v20120109-1427,"org.eclipse.jdt.ui.CompilationUnitEditor",1340491143054
closed,editor,com.android.ide.eclipse.adt,18.0.0.v201203301601-306762,"com.android.ide.eclipse.editors.manifest.ManifestEditor",1340491143054
deactivated,workbench,org.eclipse.ui.workbench,3.7.1.v20120104-1859,"",1340491143093
activated,workbench,org.eclipse.ui.workbench,3.7.1.v20120104-1859,"",1340491144322
activated,view,com.android.ide.eclipse.ddms,18.0.0.v201203301601-306762,"com.android.ide.eclipse.ddms.views.LogCatView",1340491145869
deactivated,workbench,org.eclipse.ui.workbench,3.7.1.v20120104-1859,"",1340491147549
activated,workbench,org.eclipse.ui.workbench,3.7.1.v20120104-1859,"",1340491148299
activated,view,org.eclipse.ui.ide,3.7.0.v20110928-1505,"org.eclipse.ui.views.ProblemView",1340491148896
opened,editor,com.android.ide.eclipse.adt,18.0.0.v201203301601-306762,"com.android.ide.eclipse.editors.manifest.ManifestEditor",1340491151253
activated,editor,com.android.ide.eclipse.adt,18.0.0.v201203301601-306762,"com.android.ide.eclipse.editors.manifest.ManifestEditor",1340491151276
deactivated,workbench,org.eclipse.ui.workbench,3.7.1.v20120104-1859,"",1340491153233
activated,workbench,org.eclipse.ui.workbench,3.7.1.v20120104-1859,"",1340491153931
error,log,,,"Can't find file D:\\android\\rep\\_cocos_root\\boxmaster\\android\\AndroidManifest.xml in workspace",1340491153952
error,log,,,"Can't find file D:\\android\\rep\\_cocos_root\\boxmaster\\android\\AndroidManifest.xml in workspace",1340491156350
executed,command,org.eclipse.ui,3.7.0.v20110928-1505,"org.eclipse.ui.file.saveAll",1340491156351
activated,editor,org.eclipse.jdt.ui,3.7.2.v20120109-1427,"org.eclipse.jdt.ui.CompilationUnitEditor",1340491159225
closed,editor,com.android.ide.eclipse.adt,18.0.0.v201203301601-306762,"com.android.ide.eclipse.editors.manifest.ManifestEditor",1340491159225
deactivated,workbench,org.eclipse.ui.workbench,3.7.1.v20120104-1859,"",1340491162543
activated,workbench,org.eclipse.ui.workbench,3.7.1.v20120104-1859,"",1340491163838
activated,view,org.eclipse.ui.console,3.5.100.v20111007_r372,"org.eclipse.ui.console.ConsoleView",1340491165064
activated,view,com.android.ide.eclipse.ddms,18.0.0.v201203301601-306762,"com.android.ide.eclipse.ddms.views.LogCatView",1340491173041
deactivated,workbench,org.eclipse.ui.workbench,3.7.1.v20120104-1859,"",1340491459783
activated,workbench,org.eclipse.ui.workbench,3.7.1.v20120104-1859,"",1340491632978
deactivated,workbench,org.eclipse.ui.workbench,3.7.1.v20120104-1859,"",1340491634581
activated,workbench,org.eclipse.ui.workbench,3.7.1.v20120104-1859,"",1340491743813
activated,editor,org.eclipse.jdt.ui,3.7.2.v20120109-1427,"org.eclipse.jdt.ui.CompilationUnitEditor",1340491744805
deactivated,workbench,org.eclipse.ui.workbench,3.7.1.v20120104-1859,"",1340491758074
activated,workbench,org.eclipse.ui.workbench,3.7.1.v20120104-1859,"",1340491857827
deactivated,workbench,org.eclipse.ui.workbench,3.7.1.v20120104-1859,"",1340491861502
activated,workbench,org.eclipse.ui.workbench,3.7.1.v20120104-1859,"",1340491862861
deactivated,workbench,org.eclipse.ui.workbench,3.7.1.v20120104-1859,"",1340491871382
activated,workbench,org.eclipse.ui.workbench,3.7.1.v20120104-1859,"",1340491966318
deactivated,workbench,org.eclipse.ui.workbench,3.7.1.v20120104-1859,"",1340491971665
activated,workbench,org.eclipse.ui.workbench,3.7.1.v20120104-1859,"",1340491976115
executed,command,org.eclipse.ui,3.7.0.v20110928-1505,"org.eclipse.ui.edit.copy",1340491984300
deactivated,workbench,org.eclipse.ui.workbench,3.7.1.v20120104-1859,"",1340491984810
activated,workbench,org.eclipse.ui.workbench,3.7.1.v20120104-1859,"",1340492006494
deactivated,workbench,org.eclipse.ui.workbench,3.7.1.v20120104-1859,"",1340492009971
activated,workbench,org.eclipse.ui.workbench,3.7.1.v20120104-1859,"",1340492011053
activated,view,org.eclipse.ui.console,3.5.100.v20111007_r372,"org.eclipse.ui.console.ConsoleView",1340492019024
activated,view,com.android.ide.eclipse.ddms,18.0.0.v201203301601-306762,"com.android.ide.eclipse.ddms.views.LogCatView",1340492019653
activated,view,org.eclipse.ui.console,3.5.100.v20111007_r372,"org.eclipse.ui.console.ConsoleView",1340492021821
activated,view,com.android.ide.eclipse.ddms,18.0.0.v201203301601-306762,"com.android.ide.eclipse.ddms.views.LogCatView",1340492022410
activated,editor,org.eclipse.jdt.ui,3.7.2.v20120109-1427,"org.eclipse.jdt.ui.CompilationUnitEditor",1340492037548
deactivated,workbench,org.eclipse.ui.workbench,3.7.1.v20120104-1859,"",1340492042676
activated,workbench,org.eclipse.ui.workbench,3.7.1.v20120104-1859,"",1340492053291
deactivated,workbench,org.eclipse.ui.workbench,3.7.1.v20120104-1859,"",1340492069656
activated,workbench,org.eclipse.ui.workbench,3.7.1.v20120104-1859,"",1340492072435
deactivated,workbench,org.eclipse.ui.workbench,3.7.1.v20120104-1859,"",1340492083776
activated,workbench,org.eclipse.ui.workbench,3.7.1.v20120104-1859,"",1340492156907
deactivated,workbench,org.eclipse.ui.workbench,3.7.1.v20120104-1859,"",1340492160317
activated,workbench,org.eclipse.ui.workbench,3.7.1.v20120104-1859,"",1340492161479
activated,view,com.android.ide.eclipse.ddms,18.0.0.v201203301601-306762,"com.android.ide.eclipse.ddms.views.LogCatView",1340492171302
activated,editor,org.eclipse.jdt.ui,3.7.2.v20120109-1427,"org.eclipse.jdt.ui.CompilationUnitEditor",1340492207670
deactivated,workbench,org.eclipse.ui.workbench,3.7.1.v20120104-1859,"",1340492214601
activated,workbench,org.eclipse.ui.workbench,3.7.1.v20120104-1859,"",1340492217684
activated,view,com.android.ide.eclipse.ddms,18.0.0.v201203301601-306762,"com.android.ide.eclipse.ddms.views.LogCatView",1340492218944
deactivated,workbench,org.eclipse.ui.workbench,3.7.1.v20120104-1859,"",1340492222486
activated,workbench,org.eclipse.ui.workbench,3.7.1.v20120104-1859,"",1340492234515
activated,editor,org.eclipse.jdt.ui,3.7.2.v20120109-1427,"org.eclipse.jdt.ui.CompilationUnitEditor",1340492234532
deactivated,workbench,org.eclipse.ui.workbench,3.7.1.v20120104-1859,"",1340492246877
activated,workbench,org.eclipse.ui.workbench,3.7.1.v20120104-1859,"",1340492289852
deactivated,workbench,org.eclipse.ui.workbench,3.7.1.v20120104-1859,"",1340492326188
activated,workbench,org.eclipse.ui.workbench,3.7.1.v20120104-1859,"",1340492339014
executed,command,org.eclipse.ui,3.7.0.v20110928-1505,"org.eclipse.ui.edit.delete",1340492340234
deactivated,workbench,org.eclipse.ui.workbench,3.7.1.v20120104-1859,"",1340492344774
activated,workbench,org.eclipse.ui.workbench,3.7.1.v20120104-1859,"",1340492346343
executed,command,org.eclipse.ui,3.7.0.v20110928-1505,"org.eclipse.ui.file.saveAll",1340492349280
deactivated,workbench,org.eclipse.ui.workbench,3.7.1.v20120104-1859,"",1340492350899
activated,workbench,org.eclipse.ui.workbench,3.7.1.v20120104-1859,"",1340492364082
deactivated,workbench,org.eclipse.ui.workbench,3.7.1.v20120104-1859,"",1340492374490
activated,workbench,org.eclipse.ui.workbench,3.7.1.v20120104-1859,"",1340492375968
deactivated,workbench,org.eclipse.ui.workbench,3.7.1.v20120104-1859,"",1340492378158
activated,workbench,org.eclipse.ui.workbench,3.7.1.v20120104-1859,"",1340492379202
deactivated,workbench,org.eclipse.ui.workbench,3.7.1.v20120104-1859,"",1340492401908
activated,workbench,org.eclipse.ui.workbench,3.7.1.v20120104-1859,"",1340492402746
deactivated,workbench,org.eclipse.ui.workbench,3.7.1.v20120104-1859,"",1340492404893
activated,workbench,org.eclipse.ui.workbench,3.7.1.v20120104-1859,"",1340492406018
activated,view,org.eclipse.ui.console,3.5.100.v20111007_r372,"org.eclipse.ui.console.ConsoleView",1340492412216
activated,view,com.android.ide.eclipse.ddms,18.0.0.v201203301601-306762,"com.android.ide.eclipse.ddms.views.LogCatView",1340492413771
activated,editor,org.eclipse.jdt.ui,3.7.2.v20120109-1427,"org.eclipse.jdt.ui.CompilationUnitEditor",1340492422316
deactivated,workbench,org.eclipse.ui.workbench,3.7.1.v20120104-1859,"",1340492423663
activated,workbench,org.eclipse.ui.workbench,3.7.1.v20120104-1859,"",1340492428172
deactivated,workbench,org.eclipse.ui.workbench,3.7.1.v20120104-1859,"",1340492429118
activated,workbench,org.eclipse.ui.workbench,3.7.1.v20120104-1859,"",1340492463080
executed,command,org.eclipse.ui,3.7.0.v20110928-1505,"org.eclipse.ui.edit.delete",1340492531457
executed,command,org.eclipse.ui.workbench.texteditor,3.7.0.v20110928-1504,"org.eclipse.ui.edit.text.goto.lineEnd",1340492538153
executed,command,org.eclipse.ui,3.7.0.v20110928-1505,"org.eclipse.ui.edit.copy",1340492547681
executed,command,org.eclipse.ui,3.7.0.v20110928-1505,"org.eclipse.ui.edit.paste",1340492549165
executed,command,org.eclipse.ui,3.7.0.v20110928-1505,"org.eclipse.ui.file.saveAll",1340492560312
deactivated,workbench,org.eclipse.ui.workbench,3.7.1.v20120104-1859,"",1340492563734
activated,workbench,org.eclipse.ui.workbench,3.7.1.v20120104-1859,"",1340492564723
executed,command,org.eclipse.ui,3.7.0.v20110928-1505,"org.eclipse.ui.edit.delete",1340492601873
executed,command,org.eclipse.ui,3.7.0.v20110928-1505,"org.eclipse.ui.file.saveAll",1340492606405
deactivated,workbench,org.eclipse.ui.workbench,3.7.1.v20120104-1859,"",1340492611215
activated,workbench,org.eclipse.ui.workbench,3.7.1.v20120104-1859,"",1340492613523
activated,view,org.eclipse.ui.console,3.5.100.v20111007_r372,"org.eclipse.ui.console.ConsoleView",1340492613568
activated,view,com.android.ide.eclipse.ddms,18.0.0.v201203301601-306762,"com.android.ide.eclipse.ddms.views.LogCatView",1340492622081
activated,editor,org.eclipse.jdt.ui,3.7.2.v20120109-1427,"org.eclipse.jdt.ui.CompilationUnitEditor",1340492704469
executed,command,org.eclipse.ui,3.7.0.v20110928-1505,"org.eclipse.ui.edit.delete",1340492724765
executed,command,org.eclipse.ui,3.7.0.v20110928-1505,"org.eclipse.ui.edit.delete",1340492725131
executed,command,org.eclipse.ui,3.7.0.v20110928-1505,"org.eclipse.ui.edit.cut",1340492727442
executed,command,org.eclipse.ui,3.7.0.v20110928-1505,"org.eclipse.ui.edit.paste",1340492728622
deactivated,workbench,org.eclipse.ui.workbench,3.7.1.v20120104-1859,"",1340492763793
activated,workbench,org.eclipse.ui.workbench,3.7.1.v20120104-1859,"",1340492764522
deactivated,workbench,org.eclipse.ui.workbench,3.7.1.v20120104-1859,"",1340492766662
activated,workbench,org.eclipse.ui.workbench,3.7.1.v20120104-1859,"",1340492768003
deactivated,workbench,org.eclipse.ui.workbench,3.7.1.v20120104-1859,"",1340492768513
activated,workbench,org.eclipse.ui.workbench,3.7.1.v20120104-1859,"",1340492980003
deactivated,workbench,org.eclipse.ui.workbench,3.7.1.v20120104-1859,"",1340492984067
activated,workbench,org.eclipse.ui.workbench,3.7.1.v20120104-1859,"",1340492985721
deactivated,workbench,org.eclipse.ui.workbench,3.7.1.v20120104-1859,"",1340493003512
activated,workbench,org.eclipse.ui.workbench,3.7.1.v20120104-1859,"",1340493048906
deactivated,workbench,org.eclipse.ui.workbench,3.7.1.v20120104-1859,"",1340493053387
activated,workbench,org.eclipse.ui.workbench,3.7.1.v20120104-1859,"",1340493099122
executed,command,org.eclipse.ui,3.7.0.v20110928-1505,"org.eclipse.ui.file.saveAll",1340493109139
executed,command,org.eclipse.ui,3.7.0.v20110928-1505,"org.eclipse.ui.file.saveAll",1340493118471
executed,command,org.eclipse.ui,3.7.0.v20110928-1505,"org.eclipse.ui.edit.copy",1340493122476
executed,command,org.eclipse.ui,3.7.0.v20110928-1505,"org.eclipse.ui.edit.paste",1340493123377
executed,command,org.eclipse.ui,3.7.0.v20110928-1505,"org.eclipse.ui.edit.paste",1340493124584
executed,command,org.eclipse.ui,3.7.0.v20110928-1505,"org.eclipse.ui.file.saveAll",1340493125272
deactivated,workbench,org.eclipse.ui.workbench,3.7.1.v20120104-1859,"",1340493127890
activated,workbench,org.eclipse.ui.workbench,3.7.1.v20120104-1859,"",1340493157797
deactivated,workbench,org.eclipse.ui.workbench,3.7.1.v20120104-1859,"",1340493158263
activated,workbench,org.eclipse.ui.workbench,3.7.1.v20120104-1859,"",1340493159643
deactivated,workbench,org.eclipse.ui.workbench,3.7.1.v20120104-1859,"",1340493164501
activated,workbench,org.eclipse.ui.workbench,3.7.1.v20120104-1859,"",1340493169192
deactivated,workbench,org.eclipse.ui.workbench,3.7.1.v20120104-1859,"",1340493230173
activated,workbench,org.eclipse.ui.workbench,3.7.1.v20120104-1859,"",1340493263217
deactivated,workbench,org.eclipse.ui.workbench,3.7.1.v20120104-1859,"",1340493270708
activated,workbench,org.eclipse.ui.workbench,3.7.1.v20120104-1859,"",1340493275758
executed,command,org.eclipse.ui,3.7.0.v20110928-1505,"org.eclipse.ui.edit.paste",1340493281386
deactivated,workbench,org.eclipse.ui.workbench,3.7.1.v20120104-1859,"",1340493293425
activated,workbench,org.eclipse.ui.workbench,3.7.1.v20120104-1859,"",1340493294297
deactivated,workbench,org.eclipse.ui.workbench,3.7.1.v20120104-1859,"",1340493294463
activated,workbench,org.eclipse.ui.workbench,3.7.1.v20120104-1859,"",1340493295350
activated,view,org.eclipse.ui.ide,3.7.0.v20110928-1505,"org.eclipse.ui.views.ProblemView",1340493296113
activated,editor,org.eclipse.jdt.ui,3.7.2.v20120109-1427,"org.eclipse.jdt.ui.CompilationUnitEditor",1340493297983
deactivated,workbench,org.eclipse.ui.workbench,3.7.1.v20120104-1859,"",1340493301413
activated,workbench,org.eclipse.ui.workbench,3.7.1.v20120104-1859,"",1340493302098
deactivated,workbench,org.eclipse.ui.workbench,3.7.1.v20120104-1859,"",1340493302264
activated,workbench,org.eclipse.ui.workbench,3.7.1.v20120104-1859,"",1340493304245
deactivated,workbench,org.eclipse.ui.workbench,3.7.1.v20120104-1859,"",1340493306706
activated,workbench,org.eclipse.ui.workbench,3.7.1.v20120104-1859,"",1340493343905
deactivated,workbench,org.eclipse.ui.workbench,3.7.1.v20120104-1859,"",1340493350636
activated,workbench,org.eclipse.ui.workbench,3.7.1.v20120104-1859,"",1340493358568
executed,command,org.eclipse.ui,3.7.0.v20110928-1505,"org.eclipse.ui.edit.paste",1340493363544
deactivated,workbench,org.eclipse.ui.workbench,3.7.1.v20120104-1859,"",1340493367604
activated,workbench,org.eclipse.ui.workbench,3.7.1.v20120104-1859,"",1340493368302
deactivated,workbench,org.eclipse.ui.workbench,3.7.1.v20120104-1859,"",1340493368480
activated,workbench,org.eclipse.ui.workbench,3.7.1.v20120104-1859,"",1340493370184
activated,view,org.eclipse.ui.ide,3.7.0.v20110928-1505,"org.eclipse.ui.views.ProblemView",1340493370801
activated,editor,org.eclipse.jdt.ui,3.7.2.v20120109-1427,"org.eclipse.jdt.ui.CompilationUnitEditor",1340493371539
deactivated,workbench,org.eclipse.ui.workbench,3.7.1.v20120104-1859,"",1340493382039
activated,workbench,org.eclipse.ui.workbench,3.7.1.v20120104-1859,"",1340493383021
deactivated,workbench,org.eclipse.ui.workbench,3.7.1.v20120104-1859,"",1340493383194
activated,workbench,org.eclipse.ui.workbench,3.7.1.v20120104-1859,"",1340493383871
activated,view,org.eclipse.ui.ide,3.7.0.v20110928-1505,"org.eclipse.ui.views.ProblemView",1340493384669
activated,editor,org.eclipse.jdt.ui,3.7.2.v20120109-1427,"org.eclipse.jdt.ui.CompilationUnitEditor",1340493384784
executed,command,org.eclipse.ui,3.7.0.v20110928-1505,"org.eclipse.ui.edit.delete",1340493387977
deactivated,workbench,org.eclipse.ui.workbench,3.7.1.v20120104-1859,"",1340493397165
activated,workbench,org.eclipse.ui.workbench,3.7.1.v20120104-1859,"",1340493399088
executed,command,org.eclipse.ui,3.7.0.v20110928-1505,"org.eclipse.ui.edit.delete",1340493404183
executed,command,org.eclipse.ui,3.7.0.v20110928-1505,"org.eclipse.ui.edit.delete",1340493404694
deactivated,workbench,org.eclipse.ui.workbench,3.7.1.v20120104-1859,"",1340493406010
activated,workbench,org.eclipse.ui.workbench,3.7.1.v20120104-1859,"",1340493406717
deactivated,workbench,org.eclipse.ui.workbench,3.7.1.v20120104-1859,"",1340493408921
activated,workbench,org.eclipse.ui.workbench,3.7.1.v20120104-1859,"",1340493410619
deactivated,workbench,org.eclipse.ui.workbench,3.7.1.v20120104-1859,"",1340493416685
activated,workbench,org.eclipse.ui.workbench,3.7.1.v20120104-1859,"",1340493429327
activated,view,com.android.ide.eclipse.ddms,18.0.0.v201203301601-306762,"com.android.ide.eclipse.ddms.views.LogCatView",1340493434308
activated,editor,org.eclipse.jdt.ui,3.7.2.v20120109-1427,"org.eclipse.jdt.ui.CompilationUnitEditor",1340493447555
executed,command,org.eclipse.ui,3.7.0.v20110928-1505,"org.eclipse.ui.edit.delete",1340493506981
executed,command,org.eclipse.ui,3.7.0.v20110928-1505,"org.eclipse.ui.edit.delete",1340493522376
executed,command,org.eclipse.ui,3.7.0.v20110928-1505,"org.eclipse.ui.edit.delete",1340493522736
executed,command,org.eclipse.ui.workbench.texteditor,3.7.0.v20110928-1504,"org.eclipse.ui.edit.text.goto.lineEnd",1340493523314
deactivated,workbench,org.eclipse.ui.workbench,3.7.1.v20120104-1859,"",1340493525882
activated,workbench,org.eclipse.ui.workbench,3.7.1.v20120104-1859,"",1340493526641
deactivated,workbench,org.eclipse.ui.workbench,3.7.1.v20120104-1859,"",1340493528736
activated,workbench,org.eclipse.ui.workbench,3.7.1.v20120104-1859,"",1340493530573
activated,view,com.android.ide.eclipse.ddms,18.0.0.v201203301601-306762,"com.android.ide.eclipse.ddms.views.LogCatView",1340493584656
deactivated,workbench,org.eclipse.ui.workbench,3.7.1.v20120104-1859,"",1340493609404
activated,workbench,org.eclipse.ui.workbench,3.7.1.v20120104-1859,"",1340493635821
deactivated,workbench,org.eclipse.ui.workbench,3.7.1.v20120104-1859,"",1340493637507
activated,workbench,org.eclipse.ui.workbench,3.7.1.v20120104-1859,"",1340493638577
deactivated,workbench,org.eclipse.ui.workbench,3.7.1.v20120104-1859,"",1340493690989
activated,workbench,org.eclipse.ui.workbench,3.7.1.v20120104-1859,"",1340493763469
