what,kind,bundleId,bundleVersion,description,time
started,bundle,com.android.ide.eclipse.ddms,18.0.0.v201203301601-306762,"com.android.ide.eclipse.ddms",1337256154997
started,bundle,com.android.ide.eclipse.traceview,18.0.0.v201203301601-306762,"com.android.ide.eclipse.traceview",1337256155050
opened,view,org.eclipse.ui.console,3.5.100.v20111007_r372,"org.eclipse.ui.console.ConsoleView",1337256155844
deactivated,workbench,org.eclipse.ui.workbench,3.7.1.v20120104-1859,"",1337256155889
started,bundle,org.eclipse.cdt.dsf,2.2.0.201202111925,"org.eclipse.cdt.dsf",1337256155932
started,bundle,org.eclipse.cdt.dsf.gdb,4.0.2.201202111925,"org.eclipse.cdt.dsf.gdb",1337256155933
started,bundle,org.eclipse.cdt.dsf.gdb.ui,2.2.1.201202111925,"org.eclipse.cdt.dsf.gdb.ui",1337256155933
activated,workbench,org.eclipse.ui.workbench,3.7.1.v20120104-1859,"",1337256157148
deactivated,workbench,org.eclipse.ui.workbench,3.7.1.v20120104-1859,"",1337256162356
opened,view,com.android.ide.eclipse.ddms,18.0.0.v201203301601-306762,"com.android.ide.eclipse.ddms.views.LogCatView",1337256164357
activated,workbench,org.eclipse.ui.workbench,3.7.1.v20120104-1859,"",1337256958820
deactivated,workbench,org.eclipse.ui.workbench,3.7.1.v20120104-1859,"",1337256959396
activated,workbench,org.eclipse.ui.workbench,3.7.1.v20120104-1859,"",1337256971480
deactivated,workbench,org.eclipse.ui.workbench,3.7.1.v20120104-1859,"",1337256974141
activated,workbench,org.eclipse.ui.workbench,3.7.1.v20120104-1859,"",1337256975561
deactivated,workbench,org.eclipse.ui.workbench,3.7.1.v20120104-1859,"",1337256977359
activated,workbench,org.eclipse.ui.workbench,3.7.1.v20120104-1859,"",1337256978266
deactivated,workbench,org.eclipse.ui.workbench,3.7.1.v20120104-1859,"",1337256979542
activated,workbench,org.eclipse.ui.workbench,3.7.1.v20120104-1859,"",1337257008095
deactivated,workbench,org.eclipse.ui.workbench,3.7.1.v20120104-1859,"",1337257010643
activated,workbench,org.eclipse.ui.workbench,3.7.1.v20120104-1859,"",1337258041576
deactivated,workbench,org.eclipse.ui.workbench,3.7.1.v20120104-1859,"",1337258043471
activated,workbench,org.eclipse.ui.workbench,3.7.1.v20120104-1859,"",1337258044620
deactivated,workbench,org.eclipse.ui.workbench,3.7.1.v20120104-1859,"",1337258046758
activated,workbench,org.eclipse.ui.workbench,3.7.1.v20120104-1859,"",1337258145028
deactivated,workbench,org.eclipse.ui.workbench,3.7.1.v20120104-1859,"",1337258146751
activated,workbench,org.eclipse.ui.workbench,3.7.1.v20120104-1859,"",1337258206254
deactivated,workbench,org.eclipse.ui.workbench,3.7.1.v20120104-1859,"",1337258208187
activated,workbench,org.eclipse.ui.workbench,3.7.1.v20120104-1859,"",1337258208989
deactivated,workbench,org.eclipse.ui.workbench,3.7.1.v20120104-1859,"",1337258224669
activated,workbench,org.eclipse.ui.workbench,3.7.1.v20120104-1859,"",1337258266874
deactivated,workbench,org.eclipse.ui.workbench,3.7.1.v20120104-1859,"",1337258268681
activated,workbench,org.eclipse.ui.workbench,3.7.1.v20120104-1859,"",1337258269424
deactivated,workbench,org.eclipse.ui.workbench,3.7.1.v20120104-1859,"",1337258271075
activated,workbench,org.eclipse.ui.workbench,3.7.1.v20120104-1859,"",1337258272076
deactivated,workbench,org.eclipse.ui.workbench,3.7.1.v20120104-1859,"",1337258297722
activated,workbench,org.eclipse.ui.workbench,3.7.1.v20120104-1859,"",1337258303714
deactivated,workbench,org.eclipse.ui.workbench,3.7.1.v20120104-1859,"",1337258305102
activated,workbench,org.eclipse.ui.workbench,3.7.1.v20120104-1859,"",1337258306025
closed,workbench,org.eclipse.ui.workbench,3.7.1.v20120104-1859,"",1337258306108
started,bundle,org.eclipse.compare,3.5.202.R37x_v20111109-0800,"org.eclipse.compare",1337258306294
error,log,,,"Invalid preference page path: XML Syntax",1337258306392
stopped,bundle,org.eclipse.cdt.build.crossgcc,1.0.2.201202111925,"org.eclipse.cdt.build.crossgcc",1337258306650
stopped,bundle,org.eclipse.cdt.codan.checkers.ui,1.0.0.201202111925,"org.eclipse.cdt.codan.checkers.ui",1337258306651
stopped,bundle,org.eclipse.cdt.codan.checkers,1.0.1.201202111925,"org.eclipse.cdt.codan.checkers",1337258306651
stopped,bundle,org.eclipse.cdt.codan.ui.cxx,2.0.0.201202111925,"org.eclipse.cdt.codan.ui.cxx",1337258306651
stopped,bundle,org.eclipse.cdt.codan.core.cxx,1.0.0.201202111925,"org.eclipse.cdt.codan.core.cxx",1337258306651
stopped,bundle,org.eclipse.cdt.launch.remote,2.3.0.201202111925,"org.eclipse.cdt.launch.remote",1337258306651
stopped,bundle,org.eclipse.cdt.debug.mi.ui,6.1.1.201202111925,"org.eclipse.cdt.debug.mi.ui",1337258306651
stopped,bundle,org.eclipse.cdt.debug.mi.core,7.1.1.201202111925,"org.eclipse.cdt.debug.mi.core",1337258306652
stopped,bundle,org.eclipse.cdt.debug.ui.memory.memorybrowser,1.2.100.201202111925,"org.eclipse.cdt.debug.ui.memory.memorybrowser",1337258306653
stopped,bundle,org.eclipse.cdt.debug.ui.memory.search,1.2.1.201202111925,"org.eclipse.cdt.debug.ui.memory.search",1337258306653
stopped,bundle,org.eclipse.cdt.dsf.gdb.ui,2.2.1.201202111925,"org.eclipse.cdt.dsf.gdb.ui",1337258306653
stopped,bundle,org.eclipse.cdt.dsf.ui,2.2.1.201202111925,"org.eclipse.cdt.dsf.ui",1337258306654
stopped,bundle,org.eclipse.cdt.gdb.ui,7.0.0.201202111925,"org.eclipse.cdt.gdb.ui",1337258306654
stopped,bundle,org.eclipse.cdt.dsf.gdb,4.0.2.201202111925,"org.eclipse.cdt.dsf.gdb",1337258306654
stopped,bundle,org.eclipse.cdt.launch,7.0.0.201202111925,"org.eclipse.cdt.launch",1337258306655
stopped,bundle,org.eclipse.cdt.debug.ui,7.1.2.201202111925,"org.eclipse.cdt.debug.ui",1337258306655
stopped,bundle,org.eclipse.cdt.debug.ui.memory.traditional,1.2.1.201202111925,"org.eclipse.cdt.debug.ui.memory.traditional",1337258306669
stopped,bundle,org.eclipse.cdt.dsf,2.2.0.201202111925,"org.eclipse.cdt.dsf",1337258306669
stopped,bundle,org.eclipse.cdt.debug.core,7.1.0.201202111925,"org.eclipse.cdt.debug.core",1337258306669
activated,perspective,org.eclipse.jdt.ui,,"org.eclipse.jdt.ui.JavaPerspective",1337258447300
started,bundle,org.eclipse.osgi,3.7.2.v20120110-1415,"org.eclipse.osgi",1337258447301
started,bundle,org.eclipse.equinox.simpleconfigurator,1.0.200.v20110815-1438,"org.eclipse.equinox.simpleconfigurator",1337258447302
started,bundle,com.ibm.icu,4.4.2.v20110823,"com.ibm.icu",1337258447302
started,bundle,org.eclipse.cdt.codan.checkers,1.0.1.201202111925,"org.eclipse.cdt.codan.checkers",1337258447302
started,bundle,org.eclipse.cdt.codan.core,2.0.0.201202111925,"org.eclipse.cdt.codan.core",1337258447303
started,bundle,org.eclipse.cdt.codan.core.cxx,1.0.0.201202111925,"org.eclipse.cdt.codan.core.cxx",1337258447303
started,bundle,org.eclipse.cdt.codan.ui.cxx,2.0.0.201202111925,"org.eclipse.cdt.codan.ui.cxx",1337258447303
started,bundle,org.eclipse.cdt.core,5.3.2.201202111925,"org.eclipse.cdt.core",1337258447304
started,bundle,org.eclipse.cdt.make.core,7.1.2.201202111925,"org.eclipse.cdt.make.core",1337258447304
started,bundle,org.eclipse.cdt.make.ui,7.1.2.201202111925,"org.eclipse.cdt.make.ui",1337258447304
started,bundle,org.eclipse.cdt.managedbuilder.core,8.0.2.201202111925,"org.eclipse.cdt.managedbuilder.core",1337258447305
started,bundle,org.eclipse.cdt.ui,5.3.2.201202111925,"org.eclipse.cdt.ui",1337258447306
started,bundle,org.eclipse.compare.core,3.5.200.I20110208-0800,"org.eclipse.compare.core",1337258447306
started,bundle,org.eclipse.core.contenttype,3.4.100.v20110423-0524,"org.eclipse.core.contenttype",1337258447306
started,bundle,org.eclipse.core.databinding.observable,1.4.0.I20110222-0800,"org.eclipse.core.databinding.observable",1337258447307
started,bundle,org.eclipse.core.expressions,3.4.300.v20110228,"org.eclipse.core.expressions",1337258447307
started,bundle,org.eclipse.core.filebuffers,3.5.200.v20110928-1504,"org.eclipse.core.filebuffers",1337258447308
started,bundle,org.eclipse.core.filesystem,1.3.100.v20110423-0524,"org.eclipse.core.filesystem",1337258447308
started,bundle,org.eclipse.core.jobs,3.5.101.v20120113-1953,"org.eclipse.core.jobs",1337258447308
started,bundle,org.eclipse.core.net,1.2.100.I20110511-0800,"org.eclipse.core.net",1337258447309
started,bundle,org.eclipse.core.resources,3.7.101.v20120125-1505,"org.eclipse.core.resources",1337258447309
started,bundle,org.eclipse.core.runtime,3.7.0.v20110110,"org.eclipse.core.runtime",1337258447310
started,bundle,org.eclipse.core.runtime.compatibility,3.2.100.v20100505,"org.eclipse.core.runtime.compatibility",1337258447310
started,bundle,org.eclipse.core.runtime.compatibility.auth,3.2.200.v20110110,"org.eclipse.core.runtime.compatibility.auth",1337258447316
started,bundle,org.eclipse.debug.core,3.7.1.v20111129-2031,"org.eclipse.debug.core",1337258447316
started,bundle,org.eclipse.debug.ui,3.7.102.v20111129-1423_r372,"org.eclipse.debug.ui",1337258447317
started,bundle,org.eclipse.egit.core,1.3.0.201202151440-r,"org.eclipse.egit.core",1337258447317
started,bundle,org.eclipse.egit.ui,1.3.0.201202151440-r,"org.eclipse.egit.ui",1337258447320
started,bundle,org.eclipse.epp.mpc.ui,1.1.1.I20110907-0947,"org.eclipse.epp.mpc.ui",1337258447320
started,bundle,org.eclipse.epp.usagedata.gathering,1.3.1.R201106061540,"org.eclipse.epp.usagedata.gathering",1337258447320
started,bundle,org.eclipse.epp.usagedata.recording,1.3.1.R201106061540,"org.eclipse.epp.usagedata.recording",1337258447321
started,bundle,org.eclipse.equinox.app,1.3.100.v20110321,"org.eclipse.equinox.app",1337258447321
started,bundle,org.eclipse.equinox.common,3.6.0.v20110523,"org.eclipse.equinox.common",1337258447322
started,bundle,org.eclipse.equinox.ds,1.3.1.R37x_v20110701,"org.eclipse.equinox.ds",1337258447322
started,bundle,org.eclipse.equinox.event,1.2.100.v20110502,"org.eclipse.equinox.event",1337258447323
started,bundle,org.eclipse.equinox.p2.core,2.1.1.v20120113-1346,"org.eclipse.equinox.p2.core",1337258447323
started,bundle,org.eclipse.equinox.p2.directorywatcher,1.0.300.v20110815-1419,"org.eclipse.equinox.p2.directorywatcher",1337258447324
started,bundle,org.eclipse.equinox.p2.engine,2.1.1.R37x_v20111003,"org.eclipse.equinox.p2.engine",1337258447324
started,bundle,org.eclipse.equinox.p2.metadata,2.1.0.v20110815-1419,"org.eclipse.equinox.p2.metadata",1337258447325
started,bundle,org.eclipse.equinox.p2.metadata.repository,1.2.0.v20110815-1419,"org.eclipse.equinox.p2.metadata.repository",1337258447325
started,bundle,org.eclipse.equinox.p2.operations,2.1.1.R37x_v20111111,"org.eclipse.equinox.p2.operations",1337258447325
started,bundle,org.eclipse.equinox.p2.reconciler.dropins,1.1.100.v20110815-1419,"org.eclipse.equinox.p2.reconciler.dropins",1337258447326
started,bundle,org.eclipse.equinox.p2.repository,2.1.1.v20120113-1346,"org.eclipse.equinox.p2.repository",1337258447326
started,bundle,org.eclipse.equinox.p2.ui.sdk.scheduler,1.0.100.v20110815-1419,"org.eclipse.equinox.p2.ui.sdk.scheduler",1337258447327
started,bundle,org.eclipse.equinox.p2.updatechecker,1.1.200.v20110815-1419,"org.eclipse.equinox.p2.updatechecker",1337258447327
started,bundle,org.eclipse.equinox.preferences,3.4.2.v20120111-2020,"org.eclipse.equinox.preferences",1337258447327
started,bundle,org.eclipse.equinox.registry,3.5.101.R37x_v20110810-1611,"org.eclipse.equinox.registry",1337258447328
started,bundle,org.eclipse.equinox.security,1.1.1.R37x_v20110822-1018,"org.eclipse.equinox.security",1337258447328
started,bundle,org.eclipse.equinox.util,1.0.300.v20110502,"org.eclipse.equinox.util",1337258447329
started,bundle,org.eclipse.help,3.5.100.v20110426,"org.eclipse.help",1337258447329
started,bundle,org.eclipse.jface,3.7.0.v20110928-1505,"org.eclipse.jface",1337258447329
started,bundle,org.eclipse.jgit,1.3.0.201202151440-r,"org.eclipse.jgit",1337258447330
started,bundle,org.eclipse.jsch.core,1.1.300.I20110514-0800,"org.eclipse.jsch.core",1337258447330
started,bundle,org.eclipse.ltk.core.refactoring,3.5.201.r372_v20111101-0700,"org.eclipse.ltk.core.refactoring",1337258447330
started,bundle,org.eclipse.ltk.ui.refactoring,3.6.0.v20110928-1453,"org.eclipse.ltk.ui.refactoring",1337258447330
started,bundle,org.eclipse.mylyn.bugzilla.core,3.6.5.v20120123-0100,"org.eclipse.mylyn.bugzilla.core",1337258447331
started,bundle,org.eclipse.mylyn.bugzilla.ui,3.6.0.v20110608-1400,"org.eclipse.mylyn.bugzilla.ui",1337258447331
started,bundle,org.eclipse.mylyn.commons.identity,0.8.0.v20110608-1400,"org.eclipse.mylyn.commons.identity",1337258447332
started,bundle,org.eclipse.mylyn.commons.net,3.6.0.v20110608-1400,"org.eclipse.mylyn.commons.net",1337258447332
started,bundle,org.eclipse.mylyn.commons.ui,3.6.1.v20110720-0100,"org.eclipse.mylyn.commons.ui",1337258447332
started,bundle,org.eclipse.mylyn.context.core,3.6.1.v20110720-0100,"org.eclipse.mylyn.context.core",1337258447333
started,bundle,org.eclipse.mylyn.context.ui,3.6.1.v20120112-0100,"org.eclipse.mylyn.context.ui",1337258447333
started,bundle,org.eclipse.mylyn.monitor.ui,3.6.0.v20110608-1400,"org.eclipse.mylyn.monitor.ui",1337258447333
started,bundle,org.eclipse.mylyn.tasks.ui,3.6.5.v20120215-0100,"org.eclipse.mylyn.tasks.ui",1337258447334
started,bundle,org.eclipse.mylyn.team.ui,3.6.1.v20110825-0100,"org.eclipse.mylyn.team.ui",1337258447334
started,bundle,org.eclipse.search,3.7.0.v20110928-1504,"org.eclipse.search",1337258447334
started,bundle,org.eclipse.team.core,3.6.0.I20110525-0800,"org.eclipse.team.core",1337258447335
started,bundle,org.eclipse.team.cvs.core,3.3.400.I20110510-0800,"org.eclipse.team.cvs.core",1337258447335
started,bundle,org.eclipse.team.cvs.ui,3.3.401.v20120126-1227,"org.eclipse.team.cvs.ui",1337258447336
started,bundle,org.eclipse.team.ui,3.6.101.R37x_v20111109-0800,"org.eclipse.team.ui",1337258447336
started,bundle,org.eclipse.ui,3.7.0.v20110928-1505,"org.eclipse.ui",1337258447337
started,bundle,org.eclipse.ui.console,3.5.100.v20111007_r372,"org.eclipse.ui.console",1337258447337
started,bundle,org.eclipse.ui.editors,3.7.0.v20110928-1504,"org.eclipse.ui.editors",1337258447337
started,bundle,org.eclipse.ui.forms,3.5.101.v20111011-1919,"org.eclipse.ui.forms",1337258447337
started,bundle,org.eclipse.ui.ide,3.7.0.v20110928-1505,"org.eclipse.ui.ide",1337258447338
started,bundle,org.eclipse.ui.navigator,3.5.101.v20120106-1355,"org.eclipse.ui.navigator",1337258447339
started,bundle,org.eclipse.ui.net,1.2.100.v20111208-1155,"org.eclipse.ui.net",1337258447340
started,bundle,org.eclipse.ui.views,3.6.0.v20110928-1505,"org.eclipse.ui.views",1337258447341
started,bundle,org.eclipse.ui.workbench,3.7.1.v20120104-1859,"org.eclipse.ui.workbench",1337258447341
started,bundle,org.eclipse.ui.workbench.texteditor,3.7.0.v20110928-1504,"org.eclipse.ui.workbench.texteditor",1337258447342
started,bundle,org.eclipse.update.configurator,3.3.100.v20100512,"org.eclipse.update.configurator",1337258447342
started,bundle,org.eclipse.update.core,3.2.500.v20110330,"org.eclipse.update.core",1337258447366
started,bundle,org.eclipse.update.scheduler,3.2.300.v20100512,"org.eclipse.update.scheduler",1337258447367
started,bundle,com.android.ide.eclipse.adt,18.0.0.v201203301601-306762,"com.android.ide.eclipse.adt",1337258447367
started,bundle,com.android.ide.eclipse.ddms,18.0.0.v201203301601-306762,"com.android.ide.eclipse.ddms",1337258447367
started,bundle,com.android.ide.eclipse.traceview,18.0.0.v201203301601-306762,"com.android.ide.eclipse.traceview",1337258447367
started,bundle,org.eclipse.emf.common,2.7.0.v20120127-1122,"org.eclipse.emf.common",1337258447557
started,bundle,org.eclipse.jdt.core,3.7.3.v20120119-1537,"org.eclipse.jdt.core",1337258447557
started,bundle,org.eclipse.jdt.core.manipulation,1.4.0.v20110928-1453,"org.eclipse.jdt.core.manipulation",1337258447558
started,bundle,org.eclipse.jdt.launching,3.6.1.v20111006_r372,"org.eclipse.jdt.launching",1337258447558
started,bundle,org.eclipse.jdt.ui,3.7.2.v20120109-1427,"org.eclipse.jdt.ui",1337258447560
started,bundle,org.eclipse.wst.common.project.facet.core,1.4.201.v201201101553,"org.eclipse.wst.common.project.facet.core",1337258447560
started,bundle,org.eclipse.wst.common.uriresolver,1.1.401.v201004280700,"org.eclipse.wst.common.uriresolver",1337258447561
started,bundle,org.eclipse.wst.sse.core,1.1.602.v201112071516,"org.eclipse.wst.sse.core",1337258447561
started,bundle,org.eclipse.wst.sse.ui,1.3.2.v201201041522,"org.eclipse.wst.sse.ui",1337258447561
started,bundle,org.eclipse.wst.validation,1.2.303.v201202090300,"org.eclipse.wst.validation",1337258447561
started,bundle,org.eclipse.wst.xml.core,1.1.602.v201201091944,"org.eclipse.wst.xml.core",1337258447562
started,bundle,org.eclipse.wst.xml.ui,1.1.202.v201112071516,"org.eclipse.wst.xml.ui",1337258447563
os,sysinfo,,,"win32",1337258447565
arch,sysinfo,,,"x86_64",1337258447565
ws,sysinfo,,,"win32",1337258447565
locale,sysinfo,,,"ru_RU",1337258447565
processors,sysinfo,,,"4",1337258447565
java.runtime.name,sysinfo,,,"Java(TM) SE Runtime Environment",1337258447565
java.runtime.version,sysinfo,,,"1.7.0_03-b05",1337258447565
java.specification.name,sysinfo,,,"Java Platform API Specification",1337258447565
java.specification.vendor,sysinfo,,,"Oracle Corporation",1337258447565
java.specification.version,sysinfo,,,"1.7",1337258447565
java.vendor,sysinfo,,,"Oracle Corporation",1337258447565
java.version,sysinfo,,,"1.7.0_03",1337258447565
java.vm.info,sysinfo,,,"mixed mode",1337258447565
java.vm.name,sysinfo,,,"Java HotSpot(TM) 64-Bit Server VM",1337258447565
java.vm.specification.name,sysinfo,,,"Java Virtual Machine Specification",1337258447565
java.vm.specification.vendor,sysinfo,,,"Oracle Corporation",1337258447565
java.vm.specification.version,sysinfo,,,"1.7",1337258447565
java.vm.vendor,sysinfo,,,"Oracle Corporation",1337258447565
java.vm.version,sysinfo,,,"22.1-b02",1337258447565
opened,view,org.eclipse.ui.ide,3.7.0.v20110928-1505,"org.eclipse.ui.views.ProblemView",1337258448555
error,log,,,"fileChanged: failed to find manifest package for project boxmaster",1337258449160
error,log,,,"fileChanged: failed to find manifest package for project boxmaster",1337258449161
error,log,,,"fileChanged: failed to find manifest package for project boxmaster",1337258449163
deactivated,workbench,org.eclipse.ui.workbench,3.7.1.v20120104-1859,"",1337258455849
activated,workbench,org.eclipse.ui.workbench,3.7.1.v20120104-1859,"",1337258458385
deactivated,workbench,org.eclipse.ui.workbench,3.7.1.v20120104-1859,"",1337258459975
activated,workbench,org.eclipse.ui.workbench,3.7.1.v20120104-1859,"",1337258549259
started,bundle,org.eclipse.cdt.debug.core,7.1.0.201202111925,"org.eclipse.cdt.debug.core",1337258549904
started,bundle,org.eclipse.cdt.debug.ui,7.1.2.201202111925,"org.eclipse.cdt.debug.ui",1337258549908
started,bundle,org.eclipse.jdt.junit.core,3.7.0.v20110928-1453,"org.eclipse.jdt.junit.core",1337258549930
started,bundle,org.eclipse.jdt.junit,3.7.0.v20110928-1453,"org.eclipse.jdt.junit",1337258549937
started,bundle,org.eclipse.jdt.debug,3.7.1.v20111006_r372,"org.eclipse.jdt.debug",1337258549954
started,bundle,org.eclipse.jdt.debug.ui,3.6.1.v20111006_r372,"org.eclipse.jdt.debug.ui",1337258549988
error,log,,,"Unable to read D:\\android\\rep\\_cocos_root\\boxmaster\\android\\AndroidManifest.xml: org.eclipse.core.internal.resources.ResourceException: Resource is out of sync with the file system: '/boxmaster/AndroidManifest.xml'.",1337258550562
opened,view,org.eclipse.ui.console,3.5.100.v20111007_r372,"org.eclipse.ui.console.ConsoleView",1337258550579
activated,view,org.eclipse.ui.console,3.5.100.v20111007_r372,"org.eclipse.ui.console.ConsoleView",1337258550586
error,log,,,"Unhandled event loop exception",1337258550592
started,bundle,org.eclipse.cdt.dsf,2.2.0.201202111925,"org.eclipse.cdt.dsf",1337258550620
started,bundle,org.eclipse.cdt.dsf.gdb,4.0.2.201202111925,"org.eclipse.cdt.dsf.gdb",1337258550621
started,bundle,org.eclipse.cdt.dsf.gdb.ui,2.2.1.201202111925,"org.eclipse.cdt.dsf.gdb.ui",1337258550622
activated,editor,com.android.ide.eclipse.adt,18.0.0.v201203301601-306762,"com.android.ide.eclipse.editors.manifest.ManifestEditor",1337258552129
deactivated,workbench,org.eclipse.ui.workbench,3.7.1.v20120104-1859,"",1337258552520
activated,workbench,org.eclipse.ui.workbench,3.7.1.v20120104-1859,"",1337258553798
error,log,,,"Save All Failed",1337258553821
error,log,,,"Can't find file D:\\android\\rep\\_cocos_root\\boxmaster\\android\\AndroidManifest.xml in workspace",1337258553871
deactivated,workbench,org.eclipse.ui.workbench,3.7.1.v20120104-1859,"",1337258553874
activated,workbench,org.eclipse.ui.workbench,3.7.1.v20120104-1859,"",1337258555011
deactivated,workbench,org.eclipse.ui.workbench,3.7.1.v20120104-1859,"",1337258555787
activated,workbench,org.eclipse.ui.workbench,3.7.1.v20120104-1859,"",1337258556827
error,log,,,"Can't find file D:\\android\\rep\\_cocos_root\\boxmaster\\android\\AndroidManifest.xml in workspace",1337258556914
deactivated,workbench,org.eclipse.ui.workbench,3.7.1.v20120104-1859,"",1337258556929
activated,workbench,org.eclipse.ui.workbench,3.7.1.v20120104-1859,"",1337258560219
error,log,,,"Can't find file D:\\android\\rep\\_cocos_root\\boxmaster\\android\\AndroidManifest.xml in workspace",1337258560249
opened,editor,org.eclipse.jdt.ui,3.7.2.v20120109-1427,"org.eclipse.jdt.ui.CompilationUnitEditor",1337258560749
activated,editor,org.eclipse.jdt.ui,3.7.2.v20120109-1427,"org.eclipse.jdt.ui.CompilationUnitEditor",1337258560897
closed,editor,com.android.ide.eclipse.adt,18.0.0.v201203301601-306762,"com.android.ide.eclipse.editors.manifest.ManifestEditor",1337258560898
deactivated,workbench,org.eclipse.ui.workbench,3.7.1.v20120104-1859,"",1337258570164
activated,workbench,org.eclipse.ui.workbench,3.7.1.v20120104-1859,"",1337258671302
activated,view,org.eclipse.ui.console,3.5.100.v20111007_r372,"org.eclipse.ui.console.ConsoleView",1337258674588
closed,editor,org.eclipse.jdt.ui,3.7.2.v20120109-1427,"org.eclipse.jdt.ui.CompilationUnitEditor",1337258674590
deactivated,workbench,org.eclipse.ui.workbench,3.7.1.v20120104-1859,"",1337258680360
activated,workbench,org.eclipse.ui.workbench,3.7.1.v20120104-1859,"",1337258683415
deactivated,workbench,org.eclipse.ui.workbench,3.7.1.v20120104-1859,"",1337258683932
activated,workbench,org.eclipse.ui.workbench,3.7.1.v20120104-1859,"",1337258688784
activated,view,org.eclipse.jdt.ui,3.7.2.v20120109-1427,"org.eclipse.jdt.ui.PackageExplorer",1337258696915
opened,editor,com.android.ide.eclipse.adt,18.0.0.v201203301601-306762,"com.android.ide.eclipse.editors.manifest.ManifestEditor",1337258698201
activated,editor,com.android.ide.eclipse.adt,18.0.0.v201203301601-306762,"com.android.ide.eclipse.editors.manifest.ManifestEditor",1337258698213
started,bundle,org.eclipse.wst.common.frameworks,1.2.102.v201201190400,"org.eclipse.wst.common.frameworks",1337258699545
deactivated,workbench,org.eclipse.ui.workbench,3.7.1.v20120104-1859,"",1337258702140
activated,workbench,org.eclipse.ui.workbench,3.7.1.v20120104-1859,"",1337258732734
activated,view,org.eclipse.jdt.ui,3.7.2.v20120109-1427,"org.eclipse.jdt.ui.PackageExplorer",1337258732778
opened,editor,com.android.ide.eclipse.adt,18.0.0.v201203301601-306762,"com.android.ide.eclipse.editors.CommonXmlEditor",1337258735326
activated,editor,com.android.ide.eclipse.adt,18.0.0.v201203301601-306762,"com.android.ide.eclipse.editors.CommonXmlEditor",1337258735389
activated,editor,com.android.ide.eclipse.adt,18.0.0.v201203301601-306762,"com.android.ide.eclipse.editors.manifest.ManifestEditor",1337258737062
closed,editor,com.android.ide.eclipse.adt,18.0.0.v201203301601-306762,"com.android.ide.eclipse.editors.CommonXmlEditor",1337258737062
executed,command,org.eclipse.ui,3.7.0.v20110928-1505,"org.eclipse.ui.edit.selectAll",1337258738123
executed,command,org.eclipse.ui,3.7.0.v20110928-1505,"org.eclipse.ui.edit.paste",1337258739187
error,log,,,"Can't find file D:\\android\\rep\\_cocos_root\\boxmaster\\android\\AndroidManifest.xml in workspace",1337258744112
executed,command,org.eclipse.ui,3.7.0.v20110928-1505,"org.eclipse.ui.file.saveAll",1337258744113
activated,view,org.eclipse.jdt.ui,3.7.2.v20120109-1427,"org.eclipse.jdt.ui.PackageExplorer",1337258746516
closed,editor,com.android.ide.eclipse.adt,18.0.0.v201203301601-306762,"com.android.ide.eclipse.editors.manifest.ManifestEditor",1337258746516
deactivated,workbench,org.eclipse.ui.workbench,3.7.1.v20120104-1859,"",1337258749432
activated,workbench,org.eclipse.ui.workbench,3.7.1.v20120104-1859,"",1337258750806
deactivated,workbench,org.eclipse.ui.workbench,3.7.1.v20120104-1859,"",1337258751965
activated,workbench,org.eclipse.ui.workbench,3.7.1.v20120104-1859,"",1337258753207
deactivated,workbench,org.eclipse.ui.workbench,3.7.1.v20120104-1859,"",1337258803637
activated,workbench,org.eclipse.ui.workbench,3.7.1.v20120104-1859,"",1337259032843
deactivated,workbench,org.eclipse.ui.workbench,3.7.1.v20120104-1859,"",1337259036120
activated,workbench,org.eclipse.ui.workbench,3.7.1.v20120104-1859,"",1337259037132
activated,view,org.eclipse.ui.console,3.5.100.v20111007_r372,"org.eclipse.ui.console.ConsoleView",1337259048188
activated,view,com.android.ide.eclipse.ddms,18.0.0.v201203301601-306762,"com.android.ide.eclipse.ddms.views.LogCatView",1337259048238
deactivated,workbench,org.eclipse.ui.workbench,3.7.1.v20120104-1859,"",1337259204233
activated,workbench,org.eclipse.ui.workbench,3.7.1.v20120104-1859,"",1337259225281
deactivated,workbench,org.eclipse.ui.workbench,3.7.1.v20120104-1859,"",1337259231632
activated,workbench,org.eclipse.ui.workbench,3.7.1.v20120104-1859,"",1337259232782
deactivated,workbench,org.eclipse.ui.workbench,3.7.1.v20120104-1859,"",1337259278400
activated,workbench,org.eclipse.ui.workbench,3.7.1.v20120104-1859,"",1337259623004
activated,view,org.eclipse.jdt.ui,3.7.2.v20120109-1427,"org.eclipse.jdt.ui.PackageExplorer",1337259625161
opened,editor,com.android.ide.eclipse.adt,18.0.0.v201203301601-306762,"com.android.ide.eclipse.editors.manifest.ManifestEditor",1337259625337
activated,editor,com.android.ide.eclipse.adt,18.0.0.v201203301601-306762,"com.android.ide.eclipse.editors.manifest.ManifestEditor",1337259625374
deactivated,workbench,org.eclipse.ui.workbench,3.7.1.v20120104-1859,"",1337259629924
