what,kind,bundleId,bundleVersion,description,time
activated,workbench,org.eclipse.ui.workbench,3.7.1.v20120104-1859,"",1337433897967
deactivated,workbench,org.eclipse.ui.workbench,3.7.1.v20120104-1859,"",1337433901344
activated,workbench,org.eclipse.ui.workbench,3.7.1.v20120104-1859,"",1337433902844
deactivated,workbench,org.eclipse.ui.workbench,3.7.1.v20120104-1859,"",1337434069116
activated,workbench,org.eclipse.ui.workbench,3.7.1.v20120104-1859,"",1337434570754
deactivated,workbench,org.eclipse.ui.workbench,3.7.1.v20120104-1859,"",1337434574533
activated,workbench,org.eclipse.ui.workbench,3.7.1.v20120104-1859,"",1337434576448
deactivated,workbench,org.eclipse.ui.workbench,3.7.1.v20120104-1859,"",1337434582710
activated,workbench,org.eclipse.ui.workbench,3.7.1.v20120104-1859,"",1337434583461
deactivated,workbench,org.eclipse.ui.workbench,3.7.1.v20120104-1859,"",1337434639845
activated,workbench,org.eclipse.ui.workbench,3.7.1.v20120104-1859,"",1337434648532
deactivated,workbench,org.eclipse.ui.workbench,3.7.1.v20120104-1859,"",1337434649811
activated,workbench,org.eclipse.ui.workbench,3.7.1.v20120104-1859,"",1337434651293
deactivated,workbench,org.eclipse.ui.workbench,3.7.1.v20120104-1859,"",1337434653728
activated,workbench,org.eclipse.ui.workbench,3.7.1.v20120104-1859,"",1337434655010
activated,view,org.eclipse.ui.console,3.5.100.v20111007_r372,"org.eclipse.ui.console.ConsoleView",1337434657263
activated,view,com.android.ide.eclipse.ddms,18.0.0.v201203301601-306762,"com.android.ide.eclipse.ddms.views.LogCatView",1337434663822
deactivated,workbench,org.eclipse.ui.workbench,3.7.1.v20120104-1859,"",1337434718695
activated,workbench,org.eclipse.ui.workbench,3.7.1.v20120104-1859,"",1337434788535
deactivated,workbench,org.eclipse.ui.workbench,3.7.1.v20120104-1859,"",1337434791948
activated,workbench,org.eclipse.ui.workbench,3.7.1.v20120104-1859,"",1337434792989
deactivated,workbench,org.eclipse.ui.workbench,3.7.1.v20120104-1859,"",1337434902943
activated,workbench,org.eclipse.ui.workbench,3.7.1.v20120104-1859,"",1337434932565
deactivated,workbench,org.eclipse.ui.workbench,3.7.1.v20120104-1859,"",1337434933278
activated,workbench,org.eclipse.ui.workbench,3.7.1.v20120104-1859,"",1337434935239
deactivated,workbench,org.eclipse.ui.workbench,3.7.1.v20120104-1859,"",1337434938450
activated,workbench,org.eclipse.ui.workbench,3.7.1.v20120104-1859,"",1337434939761
deactivated,workbench,org.eclipse.ui.workbench,3.7.1.v20120104-1859,"",1337434956878
activated,workbench,org.eclipse.ui.workbench,3.7.1.v20120104-1859,"",1337434967526
activated,view,org.eclipse.ui.console,3.5.100.v20111007_r372,"org.eclipse.ui.console.ConsoleView",1337434970305
activated,view,com.android.ide.eclipse.ddms,18.0.0.v201203301601-306762,"com.android.ide.eclipse.ddms.views.LogCatView",1337434973258
deactivated,workbench,org.eclipse.ui.workbench,3.7.1.v20120104-1859,"",1337435025752
activated,workbench,org.eclipse.ui.workbench,3.7.1.v20120104-1859,"",1337435033787
deactivated,workbench,org.eclipse.ui.workbench,3.7.1.v20120104-1859,"",1337435034729
activated,workbench,org.eclipse.ui.workbench,3.7.1.v20120104-1859,"",1337435035696
deactivated,workbench,org.eclipse.ui.workbench,3.7.1.v20120104-1859,"",1337435069462
activated,workbench,org.eclipse.ui.workbench,3.7.1.v20120104-1859,"",1337436208857
deactivated,workbench,org.eclipse.ui.workbench,3.7.1.v20120104-1859,"",1337436211856
activated,workbench,org.eclipse.ui.workbench,3.7.1.v20120104-1859,"",1337436212931
deactivated,workbench,org.eclipse.ui.workbench,3.7.1.v20120104-1859,"",1337436214956
activated,workbench,org.eclipse.ui.workbench,3.7.1.v20120104-1859,"",1337436221727
deactivated,workbench,org.eclipse.ui.workbench,3.7.1.v20120104-1859,"",1337436237789
activated,workbench,org.eclipse.ui.workbench,3.7.1.v20120104-1859,"",1337436239561
activated,view,org.eclipse.ui.console,3.5.100.v20111007_r372,"org.eclipse.ui.console.ConsoleView",1337436240342
activated,view,com.android.ide.eclipse.ddms,18.0.0.v201203301601-306762,"com.android.ide.eclipse.ddms.views.LogCatView",1337436249618
deactivated,workbench,org.eclipse.ui.workbench,3.7.1.v20120104-1859,"",1337436354135
activated,workbench,org.eclipse.ui.workbench,3.7.1.v20120104-1859,"",1337437360034
deactivated,workbench,org.eclipse.ui.workbench,3.7.1.v20120104-1859,"",1337437363274
activated,workbench,org.eclipse.ui.workbench,3.7.1.v20120104-1859,"",1337437365981
deactivated,workbench,org.eclipse.ui.workbench,3.7.1.v20120104-1859,"",1337437370896
activated,workbench,org.eclipse.ui.workbench,3.7.1.v20120104-1859,"",1337437373757
deactivated,workbench,org.eclipse.ui.workbench,3.7.1.v20120104-1859,"",1337437410274
activated,workbench,org.eclipse.ui.workbench,3.7.1.v20120104-1859,"",1337437513901
deactivated,workbench,org.eclipse.ui.workbench,3.7.1.v20120104-1859,"",1337437517263
activated,workbench,org.eclipse.ui.workbench,3.7.1.v20120104-1859,"",1337437518356
activated,view,org.eclipse.ui.console,3.5.100.v20111007_r372,"org.eclipse.ui.console.ConsoleView",1337437519079
activated,view,com.android.ide.eclipse.ddms,18.0.0.v201203301601-306762,"com.android.ide.eclipse.ddms.views.LogCatView",1337437528472
deactivated,workbench,org.eclipse.ui.workbench,3.7.1.v20120104-1859,"",1337437565215
activated,workbench,org.eclipse.ui.workbench,3.7.1.v20120104-1859,"",1337437567297
deactivated,workbench,org.eclipse.ui.workbench,3.7.1.v20120104-1859,"",1337437567999
activated,workbench,org.eclipse.ui.workbench,3.7.1.v20120104-1859,"",1337438018212
deactivated,workbench,org.eclipse.ui.workbench,3.7.1.v20120104-1859,"",1337438021516
activated,workbench,org.eclipse.ui.workbench,3.7.1.v20120104-1859,"",1337438022404
activated,editor,com.android.ide.eclipse.adt,18.0.0.v201203301601-306762,"com.android.ide.eclipse.editors.manifest.ManifestEditor",1337438082364
deactivated,workbench,org.eclipse.ui.workbench,3.7.1.v20120104-1859,"",1337438090521
activated,workbench,org.eclipse.ui.workbench,3.7.1.v20120104-1859,"",1337438109003
deactivated,workbench,org.eclipse.ui.workbench,3.7.1.v20120104-1859,"",1337438110143
activated,workbench,org.eclipse.ui.workbench,3.7.1.v20120104-1859,"",1337438111484
deactivated,workbench,org.eclipse.ui.workbench,3.7.1.v20120104-1859,"",1337438114953
activated,workbench,org.eclipse.ui.workbench,3.7.1.v20120104-1859,"",1337438115946
deactivated,workbench,org.eclipse.ui.workbench,3.7.1.v20120104-1859,"",1337438149198
activated,workbench,org.eclipse.ui.workbench,3.7.1.v20120104-1859,"",1337438201296
deactivated,workbench,org.eclipse.ui.workbench,3.7.1.v20120104-1859,"",1337438204961
activated,workbench,org.eclipse.ui.workbench,3.7.1.v20120104-1859,"",1337438206193
deactivated,workbench,org.eclipse.ui.workbench,3.7.1.v20120104-1859,"",1337438234791
activated,workbench,org.eclipse.ui.workbench,3.7.1.v20120104-1859,"",1337438310757
deactivated,workbench,org.eclipse.ui.workbench,3.7.1.v20120104-1859,"",1337438315461
activated,workbench,org.eclipse.ui.workbench,3.7.1.v20120104-1859,"",1337438317234
deactivated,workbench,org.eclipse.ui.workbench,3.7.1.v20120104-1859,"",1337438367410
activated,workbench,org.eclipse.ui.workbench,3.7.1.v20120104-1859,"",1337438507241
deactivated,workbench,org.eclipse.ui.workbench,3.7.1.v20120104-1859,"",1337438510657
activated,workbench,org.eclipse.ui.workbench,3.7.1.v20120104-1859,"",1337438511818
activated,view,org.eclipse.ui.console,3.5.100.v20111007_r372,"org.eclipse.ui.console.ConsoleView",1337438519262
activated,view,com.android.ide.eclipse.ddms,18.0.0.v201203301601-306762,"com.android.ide.eclipse.ddms.views.LogCatView",1337438519987
deactivated,workbench,org.eclipse.ui.workbench,3.7.1.v20120104-1859,"",1337438550375
activated,workbench,org.eclipse.ui.workbench,3.7.1.v20120104-1859,"",1337438554573
deactivated,workbench,org.eclipse.ui.workbench,3.7.1.v20120104-1859,"",1337438554875
activated,workbench,org.eclipse.ui.workbench,3.7.1.v20120104-1859,"",1337438561577
deactivated,workbench,org.eclipse.ui.workbench,3.7.1.v20120104-1859,"",1337438565229
activated,workbench,org.eclipse.ui.workbench,3.7.1.v20120104-1859,"",1337438566445
deactivated,workbench,org.eclipse.ui.workbench,3.7.1.v20120104-1859,"",1337438568858
activated,workbench,org.eclipse.ui.workbench,3.7.1.v20120104-1859,"",1337438574394
deactivated,workbench,org.eclipse.ui.workbench,3.7.1.v20120104-1859,"",1337438604859
activated,workbench,org.eclipse.ui.workbench,3.7.1.v20120104-1859,"",1337439158249
deactivated,workbench,org.eclipse.ui.workbench,3.7.1.v20120104-1859,"",1337439161480
activated,workbench,org.eclipse.ui.workbench,3.7.1.v20120104-1859,"",1337439163460
deactivated,workbench,org.eclipse.ui.workbench,3.7.1.v20120104-1859,"",1337439166631
activated,workbench,org.eclipse.ui.workbench,3.7.1.v20120104-1859,"",1337439206312
deactivated,workbench,org.eclipse.ui.workbench,3.7.1.v20120104-1859,"",1337439211489
activated,workbench,org.eclipse.ui.workbench,3.7.1.v20120104-1859,"",1337439212779
deactivated,workbench,org.eclipse.ui.workbench,3.7.1.v20120104-1859,"",1337439215184
activated,workbench,org.eclipse.ui.workbench,3.7.1.v20120104-1859,"",1337439223338
deactivated,workbench,org.eclipse.ui.workbench,3.7.1.v20120104-1859,"",1337439296195
activated,workbench,org.eclipse.ui.workbench,3.7.1.v20120104-1859,"",1337440158498
deactivated,workbench,org.eclipse.ui.workbench,3.7.1.v20120104-1859,"",1337440161774
activated,workbench,org.eclipse.ui.workbench,3.7.1.v20120104-1859,"",1337440162607
deactivated,workbench,org.eclipse.ui.workbench,3.7.1.v20120104-1859,"",1337440272327
activated,workbench,org.eclipse.ui.workbench,3.7.1.v20120104-1859,"",1337440274683
deactivated,workbench,org.eclipse.ui.workbench,3.7.1.v20120104-1859,"",1337440275932
activated,workbench,org.eclipse.ui.workbench,3.7.1.v20120104-1859,"",1337440312606
deactivated,workbench,org.eclipse.ui.workbench,3.7.1.v20120104-1859,"",1337440313743
activated,workbench,org.eclipse.ui.workbench,3.7.1.v20120104-1859,"",1337440345706
deactivated,workbench,org.eclipse.ui.workbench,3.7.1.v20120104-1859,"",1337440349726
activated,workbench,org.eclipse.ui.workbench,3.7.1.v20120104-1859,"",1337440350875
deactivated,workbench,org.eclipse.ui.workbench,3.7.1.v20120104-1859,"",1337440419464
activated,workbench,org.eclipse.ui.workbench,3.7.1.v20120104-1859,"",1337440421515
deactivated,workbench,org.eclipse.ui.workbench,3.7.1.v20120104-1859,"",1337440423272
activated,workbench,org.eclipse.ui.workbench,3.7.1.v20120104-1859,"",1337440424415
deactivated,workbench,org.eclipse.ui.workbench,3.7.1.v20120104-1859,"",1337440425572
activated,workbench,org.eclipse.ui.workbench,3.7.1.v20120104-1859,"",1337441343773
deactivated,workbench,org.eclipse.ui.workbench,3.7.1.v20120104-1859,"",1337441347323
activated,workbench,org.eclipse.ui.workbench,3.7.1.v20120104-1859,"",1337441349106
activated,view,org.eclipse.jdt.ui,3.7.2.v20120109-1427,"org.eclipse.jdt.ui.PackageExplorer",1337441423354
opened,editor,org.eclipse.jdt.ui,3.7.2.v20120109-1427,"org.eclipse.jdt.ui.CompilationUnitEditor",1337441425619
activated,editor,org.eclipse.jdt.ui,3.7.2.v20120109-1427,"org.eclipse.jdt.ui.CompilationUnitEditor",1337441425736
deactivated,workbench,org.eclipse.ui.workbench,3.7.1.v20120104-1859,"",1337441558111
activated,workbench,org.eclipse.ui.workbench,3.7.1.v20120104-1859,"",1337441659885
deactivated,workbench,org.eclipse.ui.workbench,3.7.1.v20120104-1859,"",1337441684024
activated,workbench,org.eclipse.ui.workbench,3.7.1.v20120104-1859,"",1337443268361
deactivated,workbench,org.eclipse.ui.workbench,3.7.1.v20120104-1859,"",1337443274520
activated,workbench,org.eclipse.ui.workbench,3.7.1.v20120104-1859,"",1337443329070
deactivated,workbench,org.eclipse.ui.workbench,3.7.1.v20120104-1859,"",1337443337720
activated,workbench,org.eclipse.ui.workbench,3.7.1.v20120104-1859,"",1337443414495
deactivated,workbench,org.eclipse.ui.workbench,3.7.1.v20120104-1859,"",1337443415673
activated,workbench,org.eclipse.ui.workbench,3.7.1.v20120104-1859,"",1337443417171
deactivated,workbench,org.eclipse.ui.workbench,3.7.1.v20120104-1859,"",1337443419162
activated,workbench,org.eclipse.ui.workbench,3.7.1.v20120104-1859,"",1337443441419
deactivated,workbench,org.eclipse.ui.workbench,3.7.1.v20120104-1859,"",1337443452506
activated,workbench,org.eclipse.ui.workbench,3.7.1.v20120104-1859,"",1337443457115
deactivated,workbench,org.eclipse.ui.workbench,3.7.1.v20120104-1859,"",1337443466016
activated,workbench,org.eclipse.ui.workbench,3.7.1.v20120104-1859,"",1337443467376
deactivated,workbench,org.eclipse.ui.workbench,3.7.1.v20120104-1859,"",1337443578773
activated,workbench,org.eclipse.ui.workbench,3.7.1.v20120104-1859,"",1337443580087
deactivated,workbench,org.eclipse.ui.workbench,3.7.1.v20120104-1859,"",1337443584731
activated,workbench,org.eclipse.ui.workbench,3.7.1.v20120104-1859,"",1337443586648
deactivated,workbench,org.eclipse.ui.workbench,3.7.1.v20120104-1859,"",1337443663954
activated,workbench,org.eclipse.ui.workbench,3.7.1.v20120104-1859,"",1337443694405
activated,view,org.eclipse.jdt.ui,3.7.2.v20120109-1427,"org.eclipse.jdt.ui.PackageExplorer",1337443697692
activated,editor,com.android.ide.eclipse.adt,18.0.0.v201203301601-306762,"com.android.ide.eclipse.editors.manifest.ManifestEditor",1337443697826
deactivated,workbench,org.eclipse.ui.workbench,3.7.1.v20120104-1859,"",1337443704018
activated,workbench,org.eclipse.ui.workbench,3.7.1.v20120104-1859,"",1337443717781
activated,view,org.eclipse.jdt.ui,3.7.2.v20120109-1427,"org.eclipse.jdt.ui.PackageExplorer",1337443718601
error,log,,,"Invalid preference page path: XML Syntax",1337443718696
started,bundle,org.eclipse.compare,3.5.202.R37x_v20111109-0800,"org.eclipse.compare",1337443720242
deactivated,workbench,org.eclipse.ui.workbench,3.7.1.v20120104-1859,"",1337443723399
activated,workbench,org.eclipse.ui.workbench,3.7.1.v20120104-1859,"",1337443728147
executed,command,org.eclipse.ui,3.7.0.v20110928-1505,"org.eclipse.ui.file.properties",1337443728160
deactivated,workbench,org.eclipse.ui.workbench,3.7.1.v20120104-1859,"",1337443731455
activated,workbench,org.eclipse.ui.workbench,3.7.1.v20120104-1859,"",1337443778012
deactivated,workbench,org.eclipse.ui.workbench,3.7.1.v20120104-1859,"",1337443781339
activated,workbench,org.eclipse.ui.workbench,3.7.1.v20120104-1859,"",1337443787122
deactivated,workbench,org.eclipse.ui.workbench,3.7.1.v20120104-1859,"",1337443790380
activated,workbench,org.eclipse.ui.workbench,3.7.1.v20120104-1859,"",1337443791830
deactivated,workbench,org.eclipse.ui.workbench,3.7.1.v20120104-1859,"",1337443836626
activated,workbench,org.eclipse.ui.workbench,3.7.1.v20120104-1859,"",1337443978695
deactivated,workbench,org.eclipse.ui.workbench,3.7.1.v20120104-1859,"",1337443982064
activated,workbench,org.eclipse.ui.workbench,3.7.1.v20120104-1859,"",1337443983151
deactivated,workbench,org.eclipse.ui.workbench,3.7.1.v20120104-1859,"",1337444113627
activated,workbench,org.eclipse.ui.workbench,3.7.1.v20120104-1859,"",1337446998958
deactivated,workbench,org.eclipse.ui.workbench,3.7.1.v20120104-1859,"",1337447002344
activated,workbench,org.eclipse.ui.workbench,3.7.1.v20120104-1859,"",1337447003358
closed,workbench,org.eclipse.ui.workbench,3.7.1.v20120104-1859,"",1337447003545
stopped,bundle,org.eclipse.cdt.build.crossgcc,1.0.2.201202111925,"org.eclipse.cdt.build.crossgcc",1337447003841
stopped,bundle,org.eclipse.cdt.codan.checkers.ui,1.0.0.201202111925,"org.eclipse.cdt.codan.checkers.ui",1337447003841
stopped,bundle,org.eclipse.cdt.codan.checkers,1.0.1.201202111925,"org.eclipse.cdt.codan.checkers",1337447003841
stopped,bundle,org.eclipse.cdt.codan.ui.cxx,2.0.0.201202111925,"org.eclipse.cdt.codan.ui.cxx",1337447003841
stopped,bundle,org.eclipse.cdt.codan.core.cxx,1.0.0.201202111925,"org.eclipse.cdt.codan.core.cxx",1337447003841
stopped,bundle,org.eclipse.cdt.launch.remote,2.3.0.201202111925,"org.eclipse.cdt.launch.remote",1337447003841
stopped,bundle,org.eclipse.cdt.debug.mi.ui,6.1.1.201202111925,"org.eclipse.cdt.debug.mi.ui",1337447003841
stopped,bundle,org.eclipse.cdt.debug.mi.core,7.1.1.201202111925,"org.eclipse.cdt.debug.mi.core",1337447003841
stopped,bundle,org.eclipse.cdt.debug.ui.memory.memorybrowser,1.2.100.201202111925,"org.eclipse.cdt.debug.ui.memory.memorybrowser",1337447003841
stopped,bundle,org.eclipse.cdt.debug.ui.memory.search,1.2.1.201202111925,"org.eclipse.cdt.debug.ui.memory.search",1337447003841
stopped,bundle,org.eclipse.cdt.dsf.gdb.ui,2.2.1.201202111925,"org.eclipse.cdt.dsf.gdb.ui",1337447003841
stopped,bundle,org.eclipse.cdt.dsf.ui,2.2.1.201202111925,"org.eclipse.cdt.dsf.ui",1337447003857
stopped,bundle,org.eclipse.cdt.gdb.ui,7.0.0.201202111925,"org.eclipse.cdt.gdb.ui",1337447003857
stopped,bundle,org.eclipse.cdt.dsf.gdb,4.0.2.201202111925,"org.eclipse.cdt.dsf.gdb",1337447003857
stopped,bundle,org.eclipse.cdt.launch,7.0.0.201202111925,"org.eclipse.cdt.launch",1337447003857
stopped,bundle,org.eclipse.cdt.debug.ui,7.1.2.201202111925,"org.eclipse.cdt.debug.ui",1337447003857
stopped,bundle,org.eclipse.cdt.debug.ui.memory.traditional,1.2.1.201202111925,"org.eclipse.cdt.debug.ui.memory.traditional",1337447003857
stopped,bundle,org.eclipse.cdt.dsf,2.2.0.201202111925,"org.eclipse.cdt.dsf",1337447003857
stopped,bundle,org.eclipse.cdt.debug.core,7.1.0.201202111925,"org.eclipse.cdt.debug.core",1337447003857
stopped,bundle,org.eclipse.linuxtools.cdt.autotools.ui,1.0.1.201202152032,"org.eclipse.linuxtools.cdt.autotools.ui",1337447003857
stopped,bundle,org.eclipse.linuxtools.cdt.autotools.core,1.0.2.201202152032,"org.eclipse.linuxtools.cdt.autotools.core",1337447003857
stopped,bundle,org.eclipse.cdt.managedbuilder.ui,8.0.2.201202111925,"org.eclipse.cdt.managedbuilder.ui",1337447003857
stopped,bundle,org.eclipse.cdt.make.ui,7.1.2.201202111925,"org.eclipse.cdt.make.ui",1337447003857
stopped,bundle,org.eclipse.cdt.managedbuilder.gnu.ui,8.0.2.201202111925,"org.eclipse.cdt.managedbuilder.gnu.ui",1337447003857
stopped,bundle,org.eclipse.cdt.msw.build,1.0.0.201202111925,"org.eclipse.cdt.msw.build",1337447003857
stopped,bundle,org.eclipse.cdt.managedbuilder.core,8.0.2.201202111925,"org.eclipse.cdt.managedbuilder.core",1337447003857
stopped,bundle,org.eclipse.cdt.make.core,7.1.2.201202111925,"org.eclipse.cdt.make.core",1337447003857
stopped,bundle,org.eclipse.cdt.mylyn.ui,3.6.0.v20110608-1400,"org.eclipse.cdt.mylyn.ui",1337447003857
stopped,bundle,org.eclipse.cdt.codan.ui,2.0.1.201202111925,"org.eclipse.cdt.codan.ui",1337447003857
stopped,bundle,org.eclipse.cdt.ui,5.3.2.201202111925,"org.eclipse.cdt.ui",1337447003857
stopped,bundle,org.eclipse.cdt.core,5.3.2.201202111925,"org.eclipse.cdt.core",1337447003857
stopped,bundle,org.eclipse.compare.win32,1.0.200.I20110510-0800,"org.eclipse.compare.win32",1337447003857
stopped,bundle,org.eclipse.egit.ui,1.3.0.201202151440-r,"org.eclipse.egit.ui",1337447003857
stopped,bundle,org.eclipse.egit.core,1.3.0.201202151440-r,"org.eclipse.egit.core",1337447003857
stopped,bundle,org.eclipse.equinox.p2.ui.sdk,1.0.200.v20110815-1419,"org.eclipse.equinox.p2.ui.sdk",1337447003857
stopped,bundle,org.eclipse.rse.importexport,1.2.200.v201105021534,"org.eclipse.rse.importexport",1337447003872
activated,perspective,org.eclipse.jdt.ui,,"org.eclipse.jdt.ui.JavaPerspective",1337447484662
started,bundle,org.eclipse.osgi,3.7.2.v20120110-1415,"org.eclipse.osgi",1337447484662
started,bundle,org.eclipse.equinox.simpleconfigurator,1.0.200.v20110815-1438,"org.eclipse.equinox.simpleconfigurator",1337447484662
started,bundle,com.ibm.icu,4.4.2.v20110823,"com.ibm.icu",1337447484662
started,bundle,org.eclipse.cdt.codan.checkers,1.0.1.201202111925,"org.eclipse.cdt.codan.checkers",1337447484662
started,bundle,org.eclipse.cdt.codan.core,2.0.0.201202111925,"org.eclipse.cdt.codan.core",1337447484662
started,bundle,org.eclipse.cdt.codan.core.cxx,1.0.0.201202111925,"org.eclipse.cdt.codan.core.cxx",1337447484662
started,bundle,org.eclipse.cdt.codan.ui.cxx,2.0.0.201202111925,"org.eclipse.cdt.codan.ui.cxx",1337447484662
started,bundle,org.eclipse.cdt.core,5.3.2.201202111925,"org.eclipse.cdt.core",1337447484694
started,bundle,org.eclipse.cdt.make.core,7.1.2.201202111925,"org.eclipse.cdt.make.core",1337447484709
started,bundle,org.eclipse.cdt.make.ui,7.1.2.201202111925,"org.eclipse.cdt.make.ui",1337447484740
started,bundle,org.eclipse.cdt.managedbuilder.core,8.0.2.201202111925,"org.eclipse.cdt.managedbuilder.core",1337447484740
started,bundle,org.eclipse.cdt.ui,5.3.2.201202111925,"org.eclipse.cdt.ui",1337447485333
started,bundle,org.eclipse.compare.core,3.5.200.I20110208-0800,"org.eclipse.compare.core",1337447485333
started,bundle,org.eclipse.core.contenttype,3.4.100.v20110423-0524,"org.eclipse.core.contenttype",1337447485333
started,bundle,org.eclipse.core.databinding.observable,1.4.0.I20110222-0800,"org.eclipse.core.databinding.observable",1337447485333
started,bundle,org.eclipse.core.expressions,3.4.300.v20110228,"org.eclipse.core.expressions",1337447485333
started,bundle,org.eclipse.core.filebuffers,3.5.200.v20110928-1504,"org.eclipse.core.filebuffers",1337447485333
started,bundle,org.eclipse.core.filesystem,1.3.100.v20110423-0524,"org.eclipse.core.filesystem",1337447485427
started,bundle,org.eclipse.core.jobs,3.5.101.v20120113-1953,"org.eclipse.core.jobs",1337447485427
started,bundle,org.eclipse.core.net,1.2.100.I20110511-0800,"org.eclipse.core.net",1337447485427
started,bundle,org.eclipse.core.resources,3.7.101.v20120125-1505,"org.eclipse.core.resources",1337447485427
started,bundle,org.eclipse.core.runtime,3.7.0.v20110110,"org.eclipse.core.runtime",1337447485427
started,bundle,org.eclipse.core.runtime.compatibility,3.2.100.v20100505,"org.eclipse.core.runtime.compatibility",1337447485427
started,bundle,org.eclipse.core.runtime.compatibility.auth,3.2.200.v20110110,"org.eclipse.core.runtime.compatibility.auth",1337447485427
started,bundle,org.eclipse.debug.core,3.7.1.v20111129-2031,"org.eclipse.debug.core",1337447485427
started,bundle,org.eclipse.debug.ui,3.7.102.v20111129-1423_r372,"org.eclipse.debug.ui",1337447485458
started,bundle,org.eclipse.egit.core,1.3.0.201202151440-r,"org.eclipse.egit.core",1337447485489
started,bundle,org.eclipse.egit.ui,1.3.0.201202151440-r,"org.eclipse.egit.ui",1337447485536
started,bundle,org.eclipse.epp.mpc.ui,1.1.1.I20110907-0947,"org.eclipse.epp.mpc.ui",1337447485536
started,bundle,org.eclipse.epp.usagedata.gathering,1.3.1.R201106061540,"org.eclipse.epp.usagedata.gathering",1337447485536
started,bundle,org.eclipse.epp.usagedata.recording,1.3.1.R201106061540,"org.eclipse.epp.usagedata.recording",1337447485536
started,bundle,org.eclipse.equinox.app,1.3.100.v20110321,"org.eclipse.equinox.app",1337447485536
started,bundle,org.eclipse.equinox.common,3.6.0.v20110523,"org.eclipse.equinox.common",1337447485552
started,bundle,org.eclipse.equinox.ds,1.3.1.R37x_v20110701,"org.eclipse.equinox.ds",1337447485552
started,bundle,org.eclipse.equinox.event,1.2.100.v20110502,"org.eclipse.equinox.event",1337447485552
started,bundle,org.eclipse.equinox.p2.core,2.1.1.v20120113-1346,"org.eclipse.equinox.p2.core",1337447485552
started,bundle,org.eclipse.equinox.p2.directorywatcher,1.0.300.v20110815-1419,"org.eclipse.equinox.p2.directorywatcher",1337447485552
started,bundle,org.eclipse.equinox.p2.engine,2.1.1.R37x_v20111003,"org.eclipse.equinox.p2.engine",1337447485552
started,bundle,org.eclipse.equinox.p2.metadata,2.1.0.v20110815-1419,"org.eclipse.equinox.p2.metadata",1337447485552
started,bundle,org.eclipse.equinox.p2.metadata.repository,1.2.0.v20110815-1419,"org.eclipse.equinox.p2.metadata.repository",1337447485552
started,bundle,org.eclipse.equinox.p2.operations,2.1.1.R37x_v20111111,"org.eclipse.equinox.p2.operations",1337447485552
started,bundle,org.eclipse.equinox.p2.reconciler.dropins,1.1.100.v20110815-1419,"org.eclipse.equinox.p2.reconciler.dropins",1337447485552
started,bundle,org.eclipse.equinox.p2.repository,2.1.1.v20120113-1346,"org.eclipse.equinox.p2.repository",1337447485552
started,bundle,org.eclipse.equinox.p2.ui.sdk.scheduler,1.0.100.v20110815-1419,"org.eclipse.equinox.p2.ui.sdk.scheduler",1337447485552
started,bundle,org.eclipse.equinox.p2.updatechecker,1.1.200.v20110815-1419,"org.eclipse.equinox.p2.updatechecker",1337447485552
started,bundle,org.eclipse.equinox.preferences,3.4.2.v20120111-2020,"org.eclipse.equinox.preferences",1337447485552
started,bundle,org.eclipse.equinox.registry,3.5.101.R37x_v20110810-1611,"org.eclipse.equinox.registry",1337447485552
started,bundle,org.eclipse.equinox.security,1.1.1.R37x_v20110822-1018,"org.eclipse.equinox.security",1337447485567
started,bundle,org.eclipse.equinox.util,1.0.300.v20110502,"org.eclipse.equinox.util",1337447485567
started,bundle,org.eclipse.help,3.5.100.v20110426,"org.eclipse.help",1337447485567
started,bundle,org.eclipse.jface,3.7.0.v20110928-1505,"org.eclipse.jface",1337447485567
started,bundle,org.eclipse.jgit,1.3.0.201202151440-r,"org.eclipse.jgit",1337447485567
started,bundle,org.eclipse.jsch.core,1.1.300.I20110514-0800,"org.eclipse.jsch.core",1337447485567
started,bundle,org.eclipse.ltk.core.refactoring,3.5.201.r372_v20111101-0700,"org.eclipse.ltk.core.refactoring",1337447485567
started,bundle,org.eclipse.ltk.ui.refactoring,3.6.0.v20110928-1453,"org.eclipse.ltk.ui.refactoring",1337447485567
started,bundle,org.eclipse.mylyn.bugzilla.core,3.6.5.v20120123-0100,"org.eclipse.mylyn.bugzilla.core",1337447485567
started,bundle,org.eclipse.mylyn.bugzilla.ui,3.6.0.v20110608-1400,"org.eclipse.mylyn.bugzilla.ui",1337447485583
started,bundle,org.eclipse.mylyn.commons.identity,0.8.0.v20110608-1400,"org.eclipse.mylyn.commons.identity",1337447485583
started,bundle,org.eclipse.mylyn.commons.net,3.6.0.v20110608-1400,"org.eclipse.mylyn.commons.net",1337447485583
started,bundle,org.eclipse.mylyn.commons.ui,3.6.1.v20110720-0100,"org.eclipse.mylyn.commons.ui",1337447485583
started,bundle,org.eclipse.mylyn.context.core,3.6.1.v20110720-0100,"org.eclipse.mylyn.context.core",1337447485583
started,bundle,org.eclipse.mylyn.context.ui,3.6.1.v20120112-0100,"org.eclipse.mylyn.context.ui",1337447485676
started,bundle,org.eclipse.mylyn.monitor.ui,3.6.0.v20110608-1400,"org.eclipse.mylyn.monitor.ui",1337447485676
started,bundle,org.eclipse.mylyn.tasks.ui,3.6.5.v20120215-0100,"org.eclipse.mylyn.tasks.ui",1337447485739
started,bundle,org.eclipse.mylyn.team.ui,3.6.1.v20110825-0100,"org.eclipse.mylyn.team.ui",1337447485739
started,bundle,org.eclipse.search,3.7.0.v20110928-1504,"org.eclipse.search",1337447485739
started,bundle,org.eclipse.team.core,3.6.0.I20110525-0800,"org.eclipse.team.core",1337447485739
started,bundle,org.eclipse.team.cvs.core,3.3.400.I20110510-0800,"org.eclipse.team.cvs.core",1337447485739
started,bundle,org.eclipse.team.cvs.ui,3.3.401.v20120126-1227,"org.eclipse.team.cvs.ui",1337447485895
started,bundle,org.eclipse.team.ui,3.6.101.R37x_v20111109-0800,"org.eclipse.team.ui",1337447485895
started,bundle,org.eclipse.ui,3.7.0.v20110928-1505,"org.eclipse.ui",1337447485895
started,bundle,org.eclipse.ui.console,3.5.100.v20111007_r372,"org.eclipse.ui.console",1337447485895
started,bundle,org.eclipse.ui.editors,3.7.0.v20110928-1504,"org.eclipse.ui.editors",1337447485895
started,bundle,org.eclipse.ui.forms,3.5.101.v20111011-1919,"org.eclipse.ui.forms",1337447485895
