what,kind,bundleId,bundleVersion,description,time
executed,command,org.eclipse.ui.ide,3.7.0.v20110928-1505,"org.eclipse.ui.project.buildAll",1337084902809
deactivated,workbench,org.eclipse.ui.workbench,3.7.1.v20120104-1859,"",1337084905804
activated,workbench,org.eclipse.ui.workbench,3.7.1.v20120104-1859,"",1337084906818
executed,command,org.eclipse.ui.ide,3.7.0.v20110928-1505,"org.eclipse.ui.project.cleanAction",1337084906818
deactivated,workbench,org.eclipse.ui.workbench,3.7.1.v20120104-1859,"",1337084907411
activated,workbench,org.eclipse.ui.workbench,3.7.1.v20120104-1859,"",1337084912574
executed,command,org.eclipse.ui.ide,3.7.0.v20110928-1505,"org.eclipse.ui.project.buildAll",1337084913963
deactivated,workbench,org.eclipse.ui.workbench,3.7.1.v20120104-1859,"",1337084914228
activated,workbench,org.eclipse.ui.workbench,3.7.1.v20120104-1859,"",1337084914946
activated,editor,com.android.ide.eclipse.adt,18.0.0.v201203301601-306762,"com.android.ide.eclipse.editors.manifest.ManifestEditor",1337084917473
activated,view,org.eclipse.ui.ide,3.7.0.v20110928-1505,"org.eclipse.ui.views.ProblemView",1337084919064
activated,view,org.eclipse.jdt.ui,3.7.2.v20120109-1427,"org.eclipse.jdt.ui.PackageExplorer",1337084930967
error,log,,,"Core exception while retrieving the content description",1337084936817
error,log,,,"Core exception while retrieving the content description",1337084936833
deactivated,workbench,org.eclipse.ui.workbench,3.7.1.v20120104-1859,"",1337084938283
activated,workbench,org.eclipse.ui.workbench,3.7.1.v20120104-1859,"",1337084939703
executed,command,org.eclipse.ui,3.7.0.v20110928-1505,"org.eclipse.ui.edit.delete",1337084939703
error,log,,,"Core exception while retrieving the content description",1337084940592
error,log,,,"Core exception while retrieving the content description",1337084940608
deactivated,workbench,org.eclipse.ui.workbench,3.7.1.v20120104-1859,"",1337084942308
activated,workbench,org.eclipse.ui.workbench,3.7.1.v20120104-1859,"",1337084943041
executed,command,org.eclipse.ui,3.7.0.v20110928-1505,"org.eclipse.ui.edit.delete",1337084943057
deactivated,workbench,org.eclipse.ui.workbench,3.7.1.v20120104-1859,"",1337084943697
activated,workbench,org.eclipse.ui.workbench,3.7.1.v20120104-1859,"",1337084952167
deactivated,workbench,org.eclipse.ui.workbench,3.7.1.v20120104-1859,"",1337084953431
activated,workbench,org.eclipse.ui.workbench,3.7.1.v20120104-1859,"",1337084954601
executed,command,org.eclipse.ui,3.7.0.v20110928-1505,"org.eclipse.ui.edit.delete",1337084954601
deactivated,workbench,org.eclipse.ui.workbench,3.7.1.v20120104-1859,"",1337084956130
activated,workbench,org.eclipse.ui.workbench,3.7.1.v20120104-1859,"",1337084958485
started,bundle,com.android.ide.eclipse.ddms,18.0.0.v201203301601-306762,"com.android.ide.eclipse.ddms",1337084959593
started,bundle,com.android.ide.eclipse.traceview,18.0.0.v201203301601-306762,"com.android.ide.eclipse.traceview",1337084959655
deactivated,workbench,org.eclipse.ui.workbench,3.7.1.v20120104-1859,"",1337084959811
activated,workbench,org.eclipse.ui.workbench,3.7.1.v20120104-1859,"",1337084960966
activated,view,org.eclipse.ui.ide,3.7.0.v20110928-1505,"org.eclipse.ui.views.ProblemView",1337084962791
activated,editor,org.eclipse.jdt.ui,3.7.2.v20120109-1427,"org.eclipse.jdt.ui.CompilationUnitEditor",1337084962994
activated,view,org.eclipse.ui.ide,3.7.0.v20110928-1505,"org.eclipse.ui.views.ProblemView",1337084964991
activated,editor,com.android.ide.eclipse.adt,18.0.0.v201203301601-306762,"com.android.ide.eclipse.editors.manifest.ManifestEditor",1337084965178
activated,view,org.eclipse.ui.ide,3.7.0.v20110928-1505,"org.eclipse.ui.views.ProblemView",1337084965615
activated,editor,com.android.ide.eclipse.adt,18.0.0.v201203301601-306762,"com.android.ide.eclipse.editors.manifest.ManifestEditor",1337084965739
deactivated,workbench,org.eclipse.ui.workbench,3.7.1.v20120104-1859,"",1337084976644
activated,workbench,org.eclipse.ui.workbench,3.7.1.v20120104-1859,"",1337084979234
deactivated,workbench,org.eclipse.ui.workbench,3.7.1.v20120104-1859,"",1337084980872
activated,workbench,org.eclipse.ui.workbench,3.7.1.v20120104-1859,"",1337085148427
activated,view,org.eclipse.ui.ide,3.7.0.v20110928-1505,"org.eclipse.ui.views.ProblemView",1337085153707
activated,editor,com.android.ide.eclipse.adt,18.0.0.v201203301601-306762,"com.android.ide.eclipse.editors.manifest.ManifestEditor",1337085154313
activated,view,org.eclipse.ui.ide,3.7.0.v20110928-1505,"org.eclipse.ui.views.ProblemView",1337085154875
activated,editor,com.android.ide.eclipse.adt,18.0.0.v201203301601-306762,"com.android.ide.eclipse.editors.manifest.ManifestEditor",1337085154985
activated,view,org.eclipse.ui.ide,3.7.0.v20110928-1505,"org.eclipse.ui.views.ProblemView",1337085155419
activated,editor,com.android.ide.eclipse.adt,18.0.0.v201203301601-306762,"com.android.ide.eclipse.editors.manifest.ManifestEditor",1337085155549
activated,editor,com.android.ide.eclipse.adt,18.0.0.v201203301601-306762,"com.android.ide.eclipse.editors.CommonXmlEditor",1337085159755
activated,editor,com.android.ide.eclipse.adt,18.0.0.v201203301601-306762,"com.android.ide.eclipse.editors.manifest.ManifestEditor",1337085160329
closed,editor,com.android.ide.eclipse.adt,18.0.0.v201203301601-306762,"com.android.ide.eclipse.editors.CommonXmlEditor",1337085160330
activated,view,org.eclipse.jdt.ui,3.7.2.v20120109-1427,"org.eclipse.jdt.ui.PackageExplorer",1337085161669
opened,editor,com.android.ide.eclipse.adt,18.0.0.v201203301601-306762,"com.android.ide.eclipse.editors.CommonXmlEditor",1337085163793
activated,editor,com.android.ide.eclipse.adt,18.0.0.v201203301601-306762,"com.android.ide.eclipse.editors.CommonXmlEditor",1337085163816
activated,editor,com.android.ide.eclipse.adt,18.0.0.v201203301601-306762,"com.android.ide.eclipse.editors.manifest.ManifestEditor",1337085166183
activated,editor,com.android.ide.eclipse.adt,18.0.0.v201203301601-306762,"com.android.ide.eclipse.editors.CommonXmlEditor",1337085168182
deactivated,workbench,org.eclipse.ui.workbench,3.7.1.v20120104-1859,"",1337085169047
activated,workbench,org.eclipse.ui.workbench,3.7.1.v20120104-1859,"",1337085171533
error,log,,,"Can't find file D:\\android\\rep\\_cocos_root\\boxmaster\\android\\AndroidManifest.xml in workspace",1337085171599
error,log,,,"Can't find file D:\\android\\rep\\_cocos_root\\boxmaster\\android\\res\\values\\strings.xml in workspace",1337085171600
activated,editor,com.android.ide.eclipse.adt,18.0.0.v201203301601-306762,"com.android.ide.eclipse.editors.manifest.ManifestEditor",1337085177030
activated,editor,com.android.ide.eclipse.adt,18.0.0.v201203301601-306762,"com.android.ide.eclipse.editors.CommonXmlEditor",1337085178987
deactivated,workbench,org.eclipse.ui.workbench,3.7.1.v20120104-1859,"",1337085189348
activated,workbench,org.eclipse.ui.workbench,3.7.1.v20120104-1859,"",1337085190857
activated,editor,com.android.ide.eclipse.adt,18.0.0.v201203301601-306762,"com.android.ide.eclipse.editors.manifest.ManifestEditor",1337085190923
closed,editor,com.android.ide.eclipse.adt,18.0.0.v201203301601-306762,"com.android.ide.eclipse.editors.CommonXmlEditor",1337085190923
deactivated,workbench,org.eclipse.ui.workbench,3.7.1.v20120104-1859,"",1337085191860
activated,workbench,org.eclipse.ui.workbench,3.7.1.v20120104-1859,"",1337085225951
activated,view,org.eclipse.jdt.ui,3.7.2.v20120109-1427,"org.eclipse.jdt.ui.PackageExplorer",1337085227063
opened,editor,com.android.ide.eclipse.adt,18.0.0.v201203301601-306762,"com.android.ide.eclipse.editors.CommonXmlEditor",1337085227257
activated,editor,com.android.ide.eclipse.adt,18.0.0.v201203301601-306762,"com.android.ide.eclipse.editors.CommonXmlEditor",1337085227277
no handler,command,org.eclipse.ui,3.7.0.v20110928-1505,"org.eclipse.ui.file.refresh",1337085229953
executed,command,org.eclipse.ui.ide,3.7.0.v20110928-1505,"org.eclipse.ui.project.buildAll",1337085231551
activated,view,org.eclipse.ui.ide,3.7.0.v20110928-1505,"org.eclipse.ui.views.ProblemView",1337085236881
activated,editor,com.android.ide.eclipse.adt,18.0.0.v201203301601-306762,"com.android.ide.eclipse.editors.manifest.ManifestEditor",1337085237122
executed,command,org.eclipse.ui.ide,3.7.0.v20110928-1505,"org.eclipse.ui.project.buildAll",1337085239375
executed,command,org.eclipse.ui,3.7.0.v20110928-1505,"org.eclipse.ui.edit.copy",1337085242655
activated,editor,com.android.ide.eclipse.adt,18.0.0.v201203301601-306762,"com.android.ide.eclipse.editors.CommonXmlEditor",1337085243026
executed,command,org.eclipse.ui,3.7.0.v20110928-1505,"org.eclipse.ui.edit.paste",1337085249091
error,log,,,"Can't find file D:\\android\\rep\\_cocos_root\\boxmaster\\android\\AndroidManifest.xml in workspace",1337085256240
error,log,,,"Can't find file D:\\android\\rep\\_cocos_root\\boxmaster\\android\\res\\values\\strings.xml in workspace",1337085256243
error,log,,,"Can't find file D:\\android\\rep\\_cocos_root\\boxmaster\\android\\AndroidManifest.xml in workspace",1337085256263
executed,command,org.eclipse.ui,3.7.0.v20110928-1505,"org.eclipse.ui.file.saveAll",1337085256263
error,log,,,"Can't find file D:\\android\\rep\\_cocos_root\\boxmaster\\android\\res\\values\\strings.xml in workspace",1337085256264
activated,editor,com.android.ide.eclipse.adt,18.0.0.v201203301601-306762,"com.android.ide.eclipse.editors.manifest.ManifestEditor",1337085259841
deactivated,workbench,org.eclipse.ui.workbench,3.7.1.v20120104-1859,"",1337085262692
activated,workbench,org.eclipse.ui.workbench,3.7.1.v20120104-1859,"",1337085264900
deactivated,workbench,org.eclipse.ui.workbench,3.7.1.v20120104-1859,"",1337085271748
activated,workbench,org.eclipse.ui.workbench,3.7.1.v20120104-1859,"",1337085273670
deactivated,workbench,org.eclipse.ui.workbench,3.7.1.v20120104-1859,"",1337085289759
activated,workbench,org.eclipse.ui.workbench,3.7.1.v20120104-1859,"",1337085370430
deactivated,workbench,org.eclipse.ui.workbench,3.7.1.v20120104-1859,"",1337085372745
activated,workbench,org.eclipse.ui.workbench,3.7.1.v20120104-1859,"",1337085374014
deactivated,workbench,org.eclipse.ui.workbench,3.7.1.v20120104-1859,"",1337085375183
activated,workbench,org.eclipse.ui.workbench,3.7.1.v20120104-1859,"",1337085392635
deactivated,workbench,org.eclipse.ui.workbench,3.7.1.v20120104-1859,"",1337085395424
activated,workbench,org.eclipse.ui.workbench,3.7.1.v20120104-1859,"",1337085681458
deactivated,workbench,org.eclipse.ui.workbench,3.7.1.v20120104-1859,"",1337085694765
activated,workbench,org.eclipse.ui.workbench,3.7.1.v20120104-1859,"",1337085710699
deactivated,workbench,org.eclipse.ui.workbench,3.7.1.v20120104-1859,"",1337085711711
activated,workbench,org.eclipse.ui.workbench,3.7.1.v20120104-1859,"",1337085741318
deactivated,workbench,org.eclipse.ui.workbench,3.7.1.v20120104-1859,"",1337085744331
activated,workbench,org.eclipse.ui.workbench,3.7.1.v20120104-1859,"",1337085807716
activated,editor,com.android.ide.eclipse.adt,18.0.0.v201203301601-306762,"com.android.ide.eclipse.editors.CommonXmlEditor",1337085807841
deactivated,workbench,org.eclipse.ui.workbench,3.7.1.v20120104-1859,"",1337085811473
activated,workbench,org.eclipse.ui.workbench,3.7.1.v20120104-1859,"",1337085813208
error,log,,,"Can't find file D:\\android\\rep\\_cocos_root\\boxmaster\\android\\AndroidManifest.xml in workspace",1337085813232
error,log,,,"Can't find file D:\\android\\rep\\_cocos_root\\boxmaster\\android\\res\\values\\strings.xml in workspace",1337085813233
deactivated,workbench,org.eclipse.ui.workbench,3.7.1.v20120104-1859,"",1337085849718
activated,workbench,org.eclipse.ui.workbench,3.7.1.v20120104-1859,"",1337085850865
error,log,,,"Can't find file D:\\android\\rep\\_cocos_root\\boxmaster\\android\\AndroidManifest.xml in workspace",1337085850894
error,log,,,"Can't find file D:\\android\\rep\\_cocos_root\\boxmaster\\android\\res\\values\\strings.xml in workspace",1337085850895
activated,editor,com.android.ide.eclipse.adt,18.0.0.v201203301601-306762,"com.android.ide.eclipse.editors.manifest.ManifestEditor",1337085853022
error,log,,,"Can't find file D:\\android\\rep\\_cocos_root\\boxmaster\\android\\AndroidManifest.xml in workspace",1337085854436
executed,command,org.eclipse.ui,3.7.0.v20110928-1505,"org.eclipse.ui.file.saveAll",1337085854437
error,log,,,"Can't find file D:\\android\\rep\\_cocos_root\\boxmaster\\android\\res\\values\\strings.xml in workspace",1337085854438
executed,command,org.eclipse.ui.ide,3.7.0.v20110928-1505,"org.eclipse.ui.project.buildAll",1337085855785
deactivated,workbench,org.eclipse.ui.workbench,3.7.1.v20120104-1859,"",1337085861394
executed,command,org.eclipse.ui.workbench.texteditor,3.7.0.v20110928-1504,"org.eclipse.ui.edit.text.showInformation",1337085861405
activated,workbench,org.eclipse.ui.workbench,3.7.1.v20120104-1859,"",1337085883161
executed,command,org.eclipse.ui.ide,3.7.0.v20110928-1505,"org.eclipse.ui.project.buildAll",1337085885002
executed,command,org.eclipse.ui.ide,3.7.0.v20110928-1505,"org.eclipse.ui.project.buildProject",1337085890877
activated,view,org.eclipse.ui.ide,3.7.0.v20110928-1505,"org.eclipse.ui.views.ProblemView",1337085893480
activated,editor,com.android.ide.eclipse.adt,18.0.0.v201203301601-306762,"com.android.ide.eclipse.editors.manifest.ManifestEditor",1337085893751
executed,command,org.eclipse.debug.ui,3.7.102.v20111129-1423_r372,"org.eclipse.debug.ui.commands.RunLast",1337085901992
deactivated,workbench,org.eclipse.ui.workbench,3.7.1.v20120104-1859,"",1337085902080
activated,workbench,org.eclipse.ui.workbench,3.7.1.v20120104-1859,"",1337085903197
deactivated,workbench,org.eclipse.ui.workbench,3.7.1.v20120104-1859,"",1337085906544
activated,workbench,org.eclipse.ui.workbench,3.7.1.v20120104-1859,"",1337085912167
deactivated,workbench,org.eclipse.ui.workbench,3.7.1.v20120104-1859,"",1337085915278
activated,workbench,org.eclipse.ui.workbench,3.7.1.v20120104-1859,"",1337085916355
closed,workbench,org.eclipse.ui.workbench,3.7.1.v20120104-1859,"",1337085916473
stopped,bundle,org.eclipse.cdt.build.crossgcc,1.0.2.201202111925,"org.eclipse.cdt.build.crossgcc",1337085916977
stopped,bundle,org.eclipse.cdt.codan.checkers.ui,1.0.0.201202111925,"org.eclipse.cdt.codan.checkers.ui",1337085916978
stopped,bundle,org.eclipse.cdt.codan.checkers,1.0.1.201202111925,"org.eclipse.cdt.codan.checkers",1337085916978
stopped,bundle,org.eclipse.cdt.codan.ui.cxx,2.0.0.201202111925,"org.eclipse.cdt.codan.ui.cxx",1337085916978
stopped,bundle,org.eclipse.cdt.codan.core.cxx,1.0.0.201202111925,"org.eclipse.cdt.codan.core.cxx",1337085916979
stopped,bundle,org.eclipse.cdt.launch.remote,2.3.0.201202111925,"org.eclipse.cdt.launch.remote",1337085916979
stopped,bundle,org.eclipse.cdt.debug.mi.ui,6.1.1.201202111925,"org.eclipse.cdt.debug.mi.ui",1337085916979
stopped,bundle,org.eclipse.cdt.debug.mi.core,7.1.1.201202111925,"org.eclipse.cdt.debug.mi.core",1337085916980
stopped,bundle,org.eclipse.cdt.debug.ui.memory.memorybrowser,1.2.100.201202111925,"org.eclipse.cdt.debug.ui.memory.memorybrowser",1337085916981
stopped,bundle,org.eclipse.cdt.debug.ui.memory.search,1.2.1.201202111925,"org.eclipse.cdt.debug.ui.memory.search",1337085916982
stopped,bundle,org.eclipse.cdt.dsf.gdb.ui,2.2.1.201202111925,"org.eclipse.cdt.dsf.gdb.ui",1337085916982
stopped,bundle,org.eclipse.cdt.dsf.ui,2.2.1.201202111925,"org.eclipse.cdt.dsf.ui",1337085916982
stopped,bundle,org.eclipse.cdt.gdb.ui,7.0.0.201202111925,"org.eclipse.cdt.gdb.ui",1337085916983
stopped,bundle,org.eclipse.cdt.dsf.gdb,4.0.2.201202111925,"org.eclipse.cdt.dsf.gdb",1337085916983
stopped,bundle,org.eclipse.cdt.launch,7.0.0.201202111925,"org.eclipse.cdt.launch",1337085916983
stopped,bundle,org.eclipse.cdt.debug.ui,7.1.2.201202111925,"org.eclipse.cdt.debug.ui",1337085916984
stopped,bundle,org.eclipse.cdt.debug.ui.memory.traditional,1.2.1.201202111925,"org.eclipse.cdt.debug.ui.memory.traditional",1337085916984
stopped,bundle,org.eclipse.cdt.dsf,2.2.0.201202111925,"org.eclipse.cdt.dsf",1337085916984
stopped,bundle,org.eclipse.cdt.debug.core,7.1.0.201202111925,"org.eclipse.cdt.debug.core",1337085916984
stopped,bundle,org.eclipse.linuxtools.cdt.autotools.ui,1.0.1.201202152032,"org.eclipse.linuxtools.cdt.autotools.ui",1337085916986
stopped,bundle,org.eclipse.linuxtools.cdt.autotools.core,1.0.2.201202152032,"org.eclipse.linuxtools.cdt.autotools.core",1337085916987
stopped,bundle,org.eclipse.cdt.managedbuilder.ui,8.0.2.201202111925,"org.eclipse.cdt.managedbuilder.ui",1337085916988
stopped,bundle,org.eclipse.cdt.make.ui,7.1.2.201202111925,"org.eclipse.cdt.make.ui",1337085916988
stopped,bundle,org.eclipse.cdt.managedbuilder.gnu.ui,8.0.2.201202111925,"org.eclipse.cdt.managedbuilder.gnu.ui",1337085917007
activated,perspective,org.eclipse.jdt.ui,,"org.eclipse.jdt.ui.JavaPerspective",1337085924309
started,bundle,org.eclipse.osgi,3.7.2.v20120110-1415,"org.eclipse.osgi",1337085924310
started,bundle,org.eclipse.equinox.simpleconfigurator,1.0.200.v20110815-1438,"org.eclipse.equinox.simpleconfigurator",1337085924311
started,bundle,com.ibm.icu,4.4.2.v20110823,"com.ibm.icu",1337085924311
started,bundle,org.eclipse.cdt.codan.checkers,1.0.1.201202111925,"org.eclipse.cdt.codan.checkers",1337085924312
started,bundle,org.eclipse.cdt.codan.core,2.0.0.201202111925,"org.eclipse.cdt.codan.core",1337085924312
started,bundle,org.eclipse.cdt.codan.core.cxx,1.0.0.201202111925,"org.eclipse.cdt.codan.core.cxx",1337085924312
started,bundle,org.eclipse.cdt.codan.ui.cxx,2.0.0.201202111925,"org.eclipse.cdt.codan.ui.cxx",1337085924313
started,bundle,org.eclipse.cdt.core,5.3.2.201202111925,"org.eclipse.cdt.core",1337085924313
started,bundle,org.eclipse.cdt.make.core,7.1.2.201202111925,"org.eclipse.cdt.make.core",1337085924313
started,bundle,org.eclipse.cdt.make.ui,7.1.2.201202111925,"org.eclipse.cdt.make.ui",1337085924314
started,bundle,org.eclipse.cdt.managedbuilder.core,8.0.2.201202111925,"org.eclipse.cdt.managedbuilder.core",1337085924314
started,bundle,org.eclipse.cdt.ui,5.3.2.201202111925,"org.eclipse.cdt.ui",1337085924315
started,bundle,org.eclipse.compare.core,3.5.200.I20110208-0800,"org.eclipse.compare.core",1337085924315
started,bundle,org.eclipse.core.contenttype,3.4.100.v20110423-0524,"org.eclipse.core.contenttype",1337085924316
started,bundle,org.eclipse.core.databinding.observable,1.4.0.I20110222-0800,"org.eclipse.core.databinding.observable",1337085924316
started,bundle,org.eclipse.core.expressions,3.4.300.v20110228,"org.eclipse.core.expressions",1337085924317
started,bundle,org.eclipse.core.filebuffers,3.5.200.v20110928-1504,"org.eclipse.core.filebuffers",1337085924317
started,bundle,org.eclipse.core.filesystem,1.3.100.v20110423-0524,"org.eclipse.core.filesystem",1337085924318
started,bundle,org.eclipse.core.jobs,3.5.101.v20120113-1953,"org.eclipse.core.jobs",1337085924318
started,bundle,org.eclipse.core.net,1.2.100.I20110511-0800,"org.eclipse.core.net",1337085924318
started,bundle,org.eclipse.core.resources,3.7.101.v20120125-1505,"org.eclipse.core.resources",1337085924319
started,bundle,org.eclipse.core.runtime,3.7.0.v20110110,"org.eclipse.core.runtime",1337085924319
started,bundle,org.eclipse.core.runtime.compatibility,3.2.100.v20100505,"org.eclipse.core.runtime.compatibility",1337085924320
started,bundle,org.eclipse.core.runtime.compatibility.auth,3.2.200.v20110110,"org.eclipse.core.runtime.compatibility.auth",1337085924321
started,bundle,org.eclipse.debug.core,3.7.1.v20111129-2031,"org.eclipse.debug.core",1337085924321
started,bundle,org.eclipse.debug.ui,3.7.102.v20111129-1423_r372,"org.eclipse.debug.ui",1337085924322
started,bundle,org.eclipse.egit.core,1.3.0.201202151440-r,"org.eclipse.egit.core",1337085924322
started,bundle,org.eclipse.egit.ui,1.3.0.201202151440-r,"org.eclipse.egit.ui",1337085924323
started,bundle,org.eclipse.epp.mpc.ui,1.1.1.I20110907-0947,"org.eclipse.epp.mpc.ui",1337085924323
started,bundle,org.eclipse.epp.usagedata.gathering,1.3.1.R201106061540,"org.eclipse.epp.usagedata.gathering",1337085924324
started,bundle,org.eclipse.epp.usagedata.recording,1.3.1.R201106061540,"org.eclipse.epp.usagedata.recording",1337085924324
started,bundle,org.eclipse.equinox.app,1.3.100.v20110321,"org.eclipse.equinox.app",1337085924324
started,bundle,org.eclipse.equinox.common,3.6.0.v20110523,"org.eclipse.equinox.common",1337085924325
started,bundle,org.eclipse.equinox.ds,1.3.1.R37x_v20110701,"org.eclipse.equinox.ds",1337085924325
started,bundle,org.eclipse.equinox.event,1.2.100.v20110502,"org.eclipse.equinox.event",1337085924326
started,bundle,org.eclipse.equinox.p2.core,2.1.1.v20120113-1346,"org.eclipse.equinox.p2.core",1337085924327
started,bundle,org.eclipse.equinox.p2.directorywatcher,1.0.300.v20110815-1419,"org.eclipse.equinox.p2.directorywatcher",1337085924327
started,bundle,org.eclipse.equinox.p2.engine,2.1.1.R37x_v20111003,"org.eclipse.equinox.p2.engine",1337085924327
started,bundle,org.eclipse.equinox.p2.metadata,2.1.0.v20110815-1419,"org.eclipse.equinox.p2.metadata",1337085924328
started,bundle,org.eclipse.equinox.p2.metadata.repository,1.2.0.v20110815-1419,"org.eclipse.equinox.p2.metadata.repository",1337085924328
started,bundle,org.eclipse.equinox.p2.operations,2.1.1.R37x_v20111111,"org.eclipse.equinox.p2.operations",1337085924328
started,bundle,org.eclipse.equinox.p2.reconciler.dropins,1.1.100.v20110815-1419,"org.eclipse.equinox.p2.reconciler.dropins",1337085924329
started,bundle,org.eclipse.equinox.p2.repository,2.1.1.v20120113-1346,"org.eclipse.equinox.p2.repository",1337085924329
started,bundle,org.eclipse.equinox.p2.ui.sdk.scheduler,1.0.100.v20110815-1419,"org.eclipse.equinox.p2.ui.sdk.scheduler",1337085924329
started,bundle,org.eclipse.equinox.p2.updatechecker,1.1.200.v20110815-1419,"org.eclipse.equinox.p2.updatechecker",1337085924330
started,bundle,org.eclipse.equinox.preferences,3.4.2.v20120111-2020,"org.eclipse.equinox.preferences",1337085924330
started,bundle,org.eclipse.equinox.registry,3.5.101.R37x_v20110810-1611,"org.eclipse.equinox.registry",1337085924331
started,bundle,org.eclipse.equinox.security,1.1.1.R37x_v20110822-1018,"org.eclipse.equinox.security",1337085924331
started,bundle,org.eclipse.equinox.util,1.0.300.v20110502,"org.eclipse.equinox.util",1337085924331
started,bundle,org.eclipse.help,3.5.100.v20110426,"org.eclipse.help",1337085924332
started,bundle,org.eclipse.jface,3.7.0.v20110928-1505,"org.eclipse.jface",1337085924332
started,bundle,org.eclipse.jgit,1.3.0.201202151440-r,"org.eclipse.jgit",1337085924332
started,bundle,org.eclipse.jsch.core,1.1.300.I20110514-0800,"org.eclipse.jsch.core",1337085924333
started,bundle,org.eclipse.ltk.core.refactoring,3.5.201.r372_v20111101-0700,"org.eclipse.ltk.core.refactoring",1337085924333
started,bundle,org.eclipse.ltk.ui.refactoring,3.6.0.v20110928-1453,"org.eclipse.ltk.ui.refactoring",1337085924333
started,bundle,org.eclipse.mylyn.bugzilla.core,3.6.5.v20120123-0100,"org.eclipse.mylyn.bugzilla.core",1337085924334
started,bundle,org.eclipse.mylyn.bugzilla.ui,3.6.0.v20110608-1400,"org.eclipse.mylyn.bugzilla.ui",1337085924334
started,bundle,org.eclipse.mylyn.commons.identity,0.8.0.v20110608-1400,"org.eclipse.mylyn.commons.identity",1337085924335
started,bundle,org.eclipse.mylyn.commons.net,3.6.0.v20110608-1400,"org.eclipse.mylyn.commons.net",1337085924335
started,bundle,org.eclipse.mylyn.commons.ui,3.6.1.v20110720-0100,"org.eclipse.mylyn.commons.ui",1337085924335
started,bundle,org.eclipse.mylyn.context.core,3.6.1.v20110720-0100,"org.eclipse.mylyn.context.core",1337085924335
started,bundle,org.eclipse.mylyn.context.ui,3.6.1.v20120112-0100,"org.eclipse.mylyn.context.ui",1337085924336
started,bundle,org.eclipse.mylyn.monitor.ui,3.6.0.v20110608-1400,"org.eclipse.mylyn.monitor.ui",1337085924336
started,bundle,org.eclipse.mylyn.tasks.ui,3.6.5.v20120215-0100,"org.eclipse.mylyn.tasks.ui",1337085924336
started,bundle,org.eclipse.mylyn.team.ui,3.6.1.v20110825-0100,"org.eclipse.mylyn.team.ui",1337085924337
started,bundle,org.eclipse.search,3.7.0.v20110928-1504,"org.eclipse.search",1337085924337
started,bundle,org.eclipse.team.core,3.6.0.I20110525-0800,"org.eclipse.team.core",1337085924338
started,bundle,org.eclipse.team.cvs.core,3.3.400.I20110510-0800,"org.eclipse.team.cvs.core",1337085924338
started,bundle,org.eclipse.team.cvs.ui,3.3.401.v20120126-1227,"org.eclipse.team.cvs.ui",1337085924338
started,bundle,org.eclipse.team.ui,3.6.101.R37x_v20111109-0800,"org.eclipse.team.ui",1337085924339
started,bundle,org.eclipse.ui,3.7.0.v20110928-1505,"org.eclipse.ui",1337085924339
started,bundle,org.eclipse.ui.console,3.5.100.v20111007_r372,"org.eclipse.ui.console",1337085924340
started,bundle,org.eclipse.ui.editors,3.7.0.v20110928-1504,"org.eclipse.ui.editors",1337085924340
started,bundle,org.eclipse.ui.forms,3.5.101.v20111011-1919,"org.eclipse.ui.forms",1337085924340
started,bundle,org.eclipse.ui.ide,3.7.0.v20110928-1505,"org.eclipse.ui.ide",1337085924341
started,bundle,org.eclipse.ui.navigator,3.5.101.v20120106-1355,"org.eclipse.ui.navigator",1337085924341
started,bundle,org.eclipse.ui.net,1.2.100.v20111208-1155,"org.eclipse.ui.net",1337085924342
started,bundle,org.eclipse.ui.views,3.6.0.v20110928-1505,"org.eclipse.ui.views",1337085924342
started,bundle,org.eclipse.ui.workbench,3.7.1.v20120104-1859,"org.eclipse.ui.workbench",1337085924343
started,bundle,org.eclipse.ui.workbench.texteditor,3.7.0.v20110928-1504,"org.eclipse.ui.workbench.texteditor",1337085924343
started,bundle,org.eclipse.update.configurator,3.3.100.v20100512,"org.eclipse.update.configurator",1337085924344
started,bundle,org.eclipse.update.core,3.2.500.v20110330,"org.eclipse.update.core",1337085924344
started,bundle,org.eclipse.update.scheduler,3.2.300.v20100512,"org.eclipse.update.scheduler",1337085924344
started,bundle,com.android.ide.eclipse.adt,18.0.0.v201203301601-306762,"com.android.ide.eclipse.adt",1337085924344
started,bundle,org.eclipse.emf.common,2.7.0.v20120127-1122,"org.eclipse.emf.common",1337085924345
started,bundle,org.eclipse.jdt.core,3.7.3.v20120119-1537,"org.eclipse.jdt.core",1337085924346
started,bundle,org.eclipse.jdt.core.manipulation,1.4.0.v20110928-1453,"org.eclipse.jdt.core.manipulation",1337085924346
started,bundle,org.eclipse.jdt.launching,3.6.1.v20111006_r372,"org.eclipse.jdt.launching",1337085924346
started,bundle,org.eclipse.jdt.ui,3.7.2.v20120109-1427,"org.eclipse.jdt.ui",1337085924350
started,bundle,org.eclipse.wst.common.frameworks,1.2.102.v201201190400,"org.eclipse.wst.common.frameworks",1337085924351
started,bundle,org.eclipse.wst.common.project.facet.core,1.4.201.v201201101553,"org.eclipse.wst.common.project.facet.core",1337085924351
started,bundle,org.eclipse.wst.common.uriresolver,1.1.401.v201004280700,"org.eclipse.wst.common.uriresolver",1337085924352
started,bundle,org.eclipse.wst.sse.core,1.1.602.v201112071516,"org.eclipse.wst.sse.core",1337085924352
started,bundle,org.eclipse.wst.sse.ui,1.3.2.v201201041522,"org.eclipse.wst.sse.ui",1337085924352
started,bundle,org.eclipse.wst.validation,1.2.303.v201202090300,"org.eclipse.wst.validation",1337085924352
started,bundle,org.eclipse.wst.xml.core,1.1.602.v201201091944,"org.eclipse.wst.xml.core",1337085924353
started,bundle,org.eclipse.wst.xml.ui,1.1.202.v201112071516,"org.eclipse.wst.xml.ui",1337085924353
os,sysinfo,,,"win32",1337085924356
arch,sysinfo,,,"x86_64",1337085924356
